Capstone/data/arduino/s2_R1.csv

Record Length,10000,Points,-20.0000000,500.000000000E-3,
Sample Interval,4.00000019E-3,s,-19.9960003,459.999978542E-3,
Trigger Point,5.00000000E3,Samples,-19.9920006,539.999961853E-3,
,,,-19.9880009,459.999978542E-3,
,,,-19.9839993,500.000000000E-3,
,,,-19.9799995,500.000000000E-3,
Source,CH1,,-19.9759998,539.999961853E-3,
Vertical Units,V,,-19.9720001,620.000004768E-3,
Vertical Scale,1.000000,,-19.9680004,620.000004768E-3,
Vertical Offset,0,,-19.9640007,620.000004768E-3,
Horizontal Units,s,,-19.9599991,620.000004768E-3,
Horizontal Scale,4.00000019,,-19.9559994,659.999966621E-3,
Pt Fmt,Y,,-19.9519997,579.999983311E-3,
Yzero,20.0000000E-3,,-19.9480000,620.000004768E-3,
Probe Atten,1.000000,,-19.9440002,579.999983311E-3,
,,,-19.9400005,539.999961853E-3,
Note,TDS 3034B - 10:32:32 AM   4/22/2016,,-19.9360008,659.999966621E-3,
,,,-19.9319992,659.999966621E-3,
,,,-19.9279995,579.999983311E-3,
,,,-19.9239998,659.999966621E-3,
,,,-19.9200001,659.999966621E-3,
,,,-19.9160004,699.999988079E-3,
,,,-19.9120007,699.999988079E-3,
,,,-19.9080009,740.000009537E-3,
,,,-19.9039993,819.999992847E-3,
,,,-19.8999996,819.999992847E-3,
,,,-19.8959999,939.999997616E-3,
,,,-19.8920002,819.999992847E-3,
,,,-19.8880005,899.999976158E-3,
,,,-19.8840008,859.999954700E-3,
,,,-19.8799992,819.999992847E-3,
,,,-19.8759995,779.999971390E-3,
,,,-19.8719997,859.999954700E-3,
,,,-19.8680000,819.999992847E-3,
,,,-19.8640003,819.999992847E-3,
,,,-19.8600006,859.999954700E-3,
,,,-19.8560009,740.000009537E-3,
,,,-19.8519993,859.999954700E-3,
,,,-19.8479996,819.999992847E-3,
,,,-19.8439999,859.999954700E-3,
,,,-19.8400002,859.999954700E-3,
,,,-19.8360004,819.999992847E-3,
,,,-19.8320007,859.999954700E-3,
,,,-19.8279991,779.999971390E-3,
,,,-19.8239994,779.999971390E-3,
,,,-19.8199997,779.999971390E-3,
,,,-19.8160000,779.999971390E-3,
,,,-19.8120003,819.999992847E-3,
,,,-19.8080006,740.000009537E-3,
,,,-19.8040009,819.999992847E-3,
,,,-19.7999992,779.999971390E-3,
,,,-19.7959995,819.999992847E-3,
,,,-19.7919998,819.999992847E-3,
,,,-19.7880001,779.999971390E-3,
,,,-19.7840004,740.000009537E-3,
,,,-19.7800007,779.999971390E-3,
,,,-19.7759991,740.000009537E-3,
,,,-19.7719994,740.000009537E-3,
,,,-19.7679996,699.999988079E-3,
,,,-19.7639999,659.999966621E-3,
,,,-19.7600002,659.999966621E-3,
,,,-19.7560005,620.000004768E-3,
,,,-19.7520008,579.999983311E-3,
,,,-19.7479992,539.999961853E-3,
,,,-19.7439995,539.999961853E-3,
,,,-19.7399998,539.999961853E-3,
,,,-19.7360001,579.999983311E-3,
,,,-19.7320004,500.000000000E-3,
,,,-19.7280006,579.999983311E-3,
,,,-19.7240009,579.999983311E-3,
,,,-19.7199993,620.000004768E-3,
,,,-19.7159996,740.000009537E-3,
,,,-19.7119999,699.999988079E-3,
,,,-19.7080002,659.999966621E-3,
,,,-19.7040005,779.999971390E-3,
,,,-19.7000008,779.999971390E-3,
,,,-19.6959991,740.000009537E-3,
,,,-19.6919994,740.000009537E-3,
,,,-19.6879997,740.000009537E-3,
,,,-19.6840000,740.000009537E-3,
,,,-19.6800003,740.000009537E-3,
,,,-19.6760006,740.000009537E-3,
,,,-19.6720009,740.000009537E-3,
,,,-19.6679993,659.999966621E-3,
,,,-19.6639996,740.000009537E-3,
,,,-19.6599998,699.999988079E-3,
,,,-19.6560001,699.999988079E-3,
,,,-19.6520004,740.000009537E-3,
,,,-19.6480007,699.999988079E-3,
,,,-19.6439991,659.999966621E-3,
,,,-19.6399994,579.999983311E-3,
,,,-19.6359997,699.999988079E-3,
,,,-19.6320000,740.000009537E-3,
,,,-19.6280003,699.999988079E-3,
,,,-19.6240005,699.999988079E-3,
,,,-19.6200008,659.999966621E-3,
,,,-19.6159992,740.000009537E-3,
,,,-19.6119995,699.999988079E-3,
,,,-19.6079998,659.999966621E-3,
,,,-19.6040001,620.000004768E-3,
,,,-19.6000004,620.000004768E-3,
,,,-19.5960007,579.999983311E-3,
,,,-19.5919991,620.000004768E-3,
,,,-19.5879993,579.999983311E-3,
,,,-19.5839996,500.000000000E-3,
,,,-19.5799999,620.000004768E-3,
,,,-19.5760002,579.999983311E-3,
,,,-19.5720005,699.999988079E-3,
,,,-19.5680008,699.999988079E-3,
,,,-19.5639992,659.999966621E-3,
,,,-19.5599995,699.999988079E-3,
,,,-19.5559998,659.999966621E-3,
,,,-19.5520000,579.999983311E-3,
,,,-19.5480003,620.000004768E-3,
,,,-19.5440006,539.999961853E-3,
,,,-19.5400009,620.000004768E-3,
,,,-19.5359993,539.999961853E-3,
,,,-19.5319996,539.999961853E-3,
,,,-19.5279999,539.999961853E-3,
,,,-19.5240002,539.999961853E-3,
,,,-19.5200005,500.000000000E-3,
,,,-19.5160007,539.999961853E-3,
,,,-19.5119991,500.000000000E-3,
,,,-19.5079994,459.999978542E-3,
,,,-19.5039997,419.999986887E-3,
,,,-19.5000000,419.999986887E-3,
,,,-19.4960003,459.999978542E-3,
,,,-19.4920006,459.999978542E-3,
,,,-19.4880009,459.999978542E-3,
,,,-19.4839993,379.99999523E-3,
,,,-19.4799995,379.99999523E-3,
,,,-19.4759998,459.999978542E-3,
,,,-19.4720001,419.999986887E-3,
,,,-19.4680004,419.999986887E-3,
,,,-19.4640007,419.999986887E-3,
,,,-19.4599991,419.999986887E-3,
,,,-19.4559994,340.00000358E-3,
,,,-19.4519997,379.99999523E-3,
,,,-19.4480000,340.00000358E-3,
,,,-19.4440002,379.99999523E-3,
,,,-19.4400005,419.999986887E-3,
,,,-19.4360008,379.99999523E-3,
,,,-19.4319992,340.00000358E-3,
,,,-19.4279995,379.99999523E-3,
,,,-19.4239998,419.999986887E-3,
,,,-19.4200001,419.999986887E-3,
,,,-19.4160004,419.999986887E-3,
,,,-19.4120007,419.999986887E-3,
,,,-19.4079990,419.999986887E-3,
,,,-19.4039993,500.000000000E-3,
,,,-19.3999996,459.999978542E-3,
,,,-19.3959999,500.000000000E-3,
,,,-19.3920002,379.99999523E-3,
,,,-19.3880005,379.99999523E-3,
,,,-19.3840008,379.99999523E-3,
,,,-19.3799992,459.999978542E-3,
,,,-19.3759995,379.99999523E-3,
,,,-19.3719997,419.999986887E-3,
,,,-19.3680000,459.999978542E-3,
,,,-19.3640003,419.999986887E-3,
,,,-19.3600006,459.999978542E-3,
,,,-19.3560009,419.999986887E-3,
,,,-19.3519993,340.00000358E-3,
,,,-19.3479996,379.99999523E-3,
,,,-19.3439999,340.00000358E-3,
,,,-19.3400002,419.999986887E-3,
,,,-19.3360004,379.99999523E-3,
,,,-19.3320007,379.99999523E-3,
,,,-19.3279991,259.99999046E-3,
,,,-19.3239994,340.00000358E-3,
,,,-19.3199997,340.00000358E-3,
,,,-19.3160000,340.00000358E-3,
,,,-19.3120003,299.99998212E-3,
,,,-19.3080006,299.99998212E-3,
,,,-19.3040009,379.99999523E-3,
,,,-19.2999992,340.00000358E-3,
,,,-19.2959995,299.99998212E-3,
,,,-19.2919998,340.00000358E-3,
,,,-19.2880001,379.99999523E-3,
,,,-19.2840004,340.00000358E-3,
,,,-19.2800007,299.99998212E-3,
,,,-19.2759991,340.00000358E-3,
,,,-19.2719994,379.99999523E-3,
,,,-19.2679996,299.99998212E-3,
,,,-19.2639999,299.99998212E-3,
,,,-19.2600002,340.00000358E-3,
,,,-19.2560005,299.99998212E-3,
,,,-19.2520008,340.00000358E-3,
,,,-19.2479992,379.99999523E-3,
,,,-19.2439995,299.99998212E-3,
,,,-19.2399998,340.00000358E-3,
,,,-19.2360001,299.99998212E-3,
,,,-19.2320004,299.99998212E-3,
,,,-19.2280006,259.99999046E-3,
,,,-19.2239990,259.99999046E-3,
,,,-19.2199993,219.99999881E-3,
,,,-19.2159996,259.99999046E-3,
,,,-19.2119999,299.99998212E-3,
,,,-19.2080002,299.99998212E-3,
,,,-19.2040005,219.99999881E-3,
,,,-19.2000008,219.99999881E-3,
,,,-19.1959991,219.99999881E-3,
,,,-19.1919994,219.99999881E-3,
,,,-19.1879997,219.99999881E-3,
,,,-19.1840000,179.99999225E-3,
,,,-19.1800003,179.99999225E-3,
,,,-19.1760006,219.99999881E-3,
,,,-19.1720009,179.99999225E-3,
,,,-19.1679993,140.0000006E-3,
,,,-19.1639996,259.99999046E-3,
,,,-19.1599998,179.99999225E-3,
,,,-19.1560001,259.99999046E-3,
,,,-19.1520004,259.99999046E-3,
,,,-19.1480007,219.99999881E-3,
,,,-19.1439991,219.99999881E-3,
,,,-19.1399994,259.99999046E-3,
,,,-19.1359997,219.99999881E-3,
,,,-19.1320000,179.99999225E-3,
,,,-19.1280003,219.99999881E-3,
,,,-19.1240005,259.99999046E-3,
,,,-19.1200008,140.0000006E-3,
,,,-19.1159992,179.99999225E-3,
,,,-19.1119995,259.99999046E-3,
,,,-19.1079998,179.99999225E-3,
,,,-19.1040001,99.999994040E-3,
,,,-19.1000004,219.99999881E-3,
,,,-19.0960007,140.0000006E-3,
,,,-19.0919991,259.99999046E-3,
,,,-19.0879993,179.99999225E-3,
,,,-19.0839996,219.99999881E-3,
,,,-19.0799999,179.99999225E-3,
,,,-19.0760002,99.999994040E-3,
,,,-19.0720005,179.99999225E-3,
,,,-19.0680008,179.99999225E-3,
,,,-19.0639992,140.0000006E-3,
,,,-19.0599995,140.0000006E-3,
,,,-19.0559998,140.0000006E-3,
,,,-19.0520000,219.99999881E-3,
,,,-19.0480003,140.0000006E-3,
,,,-19.0440006,179.99999225E-3,
,,,-19.0399990,140.0000006E-3,
,,,-19.0359993,99.999994040E-3,
,,,-19.0319996,179.99999225E-3,
,,,-19.0279999,140.0000006E-3,
,,,-19.0240002,140.0000006E-3,
,,,-19.0200005,99.999994040E-3,
,,,-19.0160007,140.0000006E-3,
,,,-19.0119991,179.99999225E-3,
,,,-19.0079994,59.999998659E-3,
,,,-19.0039997,140.0000006E-3,
,,,-19.0000000,99.999994040E-3,
,,,-18.9960003,179.99999225E-3,
,,,-18.9920006,140.0000006E-3,
,,,-18.9880009,99.999994040E-3,
,,,-18.9839993,99.999994040E-3,
,,,-18.9799995,140.0000006E-3,
,,,-18.9759998,179.99999225E-3,
,,,-18.9720001,99.999994040E-3,
,,,-18.9680004,140.0000006E-3,
,,,-18.9640007,140.0000006E-3,
,,,-18.9599991,99.999994040E-3,
,,,-18.9559994,59.999998659E-3,
,,,-18.9519997,140.0000006E-3,
,,,-18.9480000,179.99999225E-3,
,,,-18.9440002,140.0000006E-3,
,,,-18.9400005,140.0000006E-3,
,,,-18.9360008,179.99999225E-3,
,,,-18.9319992,140.0000006E-3,
,,,-18.9279995,140.0000006E-3,
,,,-18.9239998,99.999994040E-3,
,,,-18.9200001,99.999994040E-3,
,,,-18.9160004,99.999994040E-3,
,,,-18.9120007,140.0000006E-3,
,,,-18.9079990,140.0000006E-3,
,,,-18.9039993,140.0000006E-3,
,,,-18.8999996,140.0000006E-3,
,,,-18.8959999,179.99999225E-3,
,,,-18.8920002,99.999994040E-3,
,,,-18.8880005,179.99999225E-3,
,,,-18.8840008,140.0000006E-3,
,,,-18.8799992,179.99999225E-3,
,,,-18.8759995,179.99999225E-3,
,,,-18.8719997,219.99999881E-3,
,,,-18.8680000,179.99999225E-3,
,,,-18.8640003,140.0000006E-3,
,,,-18.8600006,179.99999225E-3,
,,,-18.8559990,219.99999881E-3,
,,,-18.8519993,179.99999225E-3,
,,,-18.8479996,179.99999225E-3,
,,,-18.8439999,179.99999225E-3,
,,,-18.8400002,140.0000006E-3,
,,,-18.8360004,179.99999225E-3,
,,,-18.8320007,140.0000006E-3,
,,,-18.8279991,59.999998659E-3,
,,,-18.8239994,59.999998659E-3,
,,,-18.8199997,140.0000006E-3,
,,,-18.8160000,140.0000006E-3,
,,,-18.8120003,179.99999225E-3,
,,,-18.8080006,99.999994040E-3,
,,,-18.8040009,140.0000006E-3,
,,,-18.7999992,179.99999225E-3,
,,,-18.7959995,219.99999881E-3,
,,,-18.7919998,219.99999881E-3,
,,,-18.7880001,179.99999225E-3,
,,,-18.7840004,179.99999225E-3,
,,,-18.7800007,179.99999225E-3,
,,,-18.7759991,219.99999881E-3,
,,,-18.7719994,179.99999225E-3,
,,,-18.7679996,140.0000006E-3,
,,,-18.7639999,140.0000006E-3,
,,,-18.7600002,140.0000006E-3,
,,,-18.7560005,179.99999225E-3,
,,,-18.7520008,179.99999225E-3,
,,,-18.7479992,179.99999225E-3,
,,,-18.7439995,179.99999225E-3,
,,,-18.7399998,140.0000006E-3,
,,,-18.7360001,179.99999225E-3,
,,,-18.7320004,179.99999225E-3,
,,,-18.7280006,59.999998659E-3,
,,,-18.7239990,99.999994040E-3,
,,,-18.7199993,140.0000006E-3,
,,,-18.7159996,140.0000006E-3,
,,,-18.7119999,219.99999881E-3,
,,,-18.7080002,179.99999225E-3,
,,,-18.7040005,179.99999225E-3,
,,,-18.7000008,179.99999225E-3,
,,,-18.6959991,219.99999881E-3,
,,,-18.6919994,219.99999881E-3,
,,,-18.6879997,259.99999046E-3,
,,,-18.6840000,179.99999225E-3,
,,,-18.6800003,219.99999881E-3,
,,,-18.6760006,219.99999881E-3,
,,,-18.6720009,219.99999881E-3,
,,,-18.6679993,140.0000006E-3,
,,,-18.6639996,179.99999225E-3,
,,,-18.6599998,99.999994040E-3,
,,,-18.6560001,179.99999225E-3,
,,,-18.6520004,299.99998212E-3,
,,,-18.6480007,179.99999225E-3,
,,,-18.6439991,179.99999225E-3,
,,,-18.6399994,140.0000006E-3,
,,,-18.6359997,179.99999225E-3,
,,,-18.6320000,140.0000006E-3,
,,,-18.6280003,99.999994040E-3,
,,,-18.6240005,179.99999225E-3,
,,,-18.6200008,140.0000006E-3,
,,,-18.6159992,140.0000006E-3,
,,,-18.6119995,179.99999225E-3,
,,,-18.6079998,179.99999225E-3,
,,,-18.6040001,219.99999881E-3,
,,,-18.6000004,179.99999225E-3,
,,,-18.5960007,140.0000006E-3,
,,,-18.5919991,140.0000006E-3,
,,,-18.5879993,179.99999225E-3,
,,,-18.5839996,140.0000006E-3,
,,,-18.5799999,140.0000006E-3,
,,,-18.5760002,179.99999225E-3,
,,,-18.5720005,140.0000006E-3,
,,,-18.5680008,140.0000006E-3,
,,,-18.5639992,140.0000006E-3,
,,,-18.5599995,59.999998659E-3,
,,,-18.5559998,99.999994040E-3,
,,,-18.5520000,140.0000006E-3,
,,,-18.5480003,99.999994040E-3,
,,,-18.5440006,140.0000006E-3,
,,,-18.5399990,99.999994040E-3,
,,,-18.5359993,19.9999996E-3,
,,,-18.5319996,140.0000006E-3,
,,,-18.5279999,140.0000006E-3,
,,,-18.5240002,140.0000006E-3,
,,,-18.5200005,99.999994040E-3,
,,,-18.5160007,99.999994040E-3,
,,,-18.5119991,99.999994040E-3,
,,,-18.5079994,140.0000006E-3,
,,,-18.5039997,99.999994040E-3,
,,,-18.5000000,140.0000006E-3,
,,,-18.4960003,99.999994040E-3,
,,,-18.4920006,99.999994040E-3,
,,,-18.4880009,99.999994040E-3,
,,,-18.4839993,99.999994040E-3,
,,,-18.4799995,140.0000006E-3,
,,,-18.4759998,179.99999225E-3,
,,,-18.4720001,140.0000006E-3,
,,,-18.4680004,179.99999225E-3,
,,,-18.4640007,179.99999225E-3,
,,,-18.4599991,140.0000006E-3,
,,,-18.4559994,140.0000006E-3,
,,,-18.4519997,140.0000006E-3,
,,,-18.4480000,179.99999225E-3,
,,,-18.4440002,140.0000006E-3,
,,,-18.4400005,99.999994040E-3,
,,,-18.4360008,140.0000006E-3,
,,,-18.4319992,140.0000006E-3,
,,,-18.4279995,99.999994040E-3,
,,,-18.4239998,140.0000006E-3,
,,,-18.4200001,140.0000006E-3,
,,,-18.4160004,179.99999225E-3,
,,,-18.4120007,99.999994040E-3,
,,,-18.4079990,140.0000006E-3,
,,,-18.4039993,140.0000006E-3,
,,,-18.3999996,140.0000006E-3,
,,,-18.3959999,140.0000006E-3,
,,,-18.3920002,140.0000006E-3,
,,,-18.3880005,140.0000006E-3,
,,,-18.3840008,99.999994040E-3,
,,,-18.3799992,140.0000006E-3,
,,,-18.3759995,99.999994040E-3,
,,,-18.3719997,140.0000006E-3,
,,,-18.3680000,140.0000006E-3,
,,,-18.3640003,140.0000006E-3,
,,,-18.3600006,140.0000006E-3,
,,,-18.3559990,59.999998659E-3,
,,,-18.3519993,99.999994040E-3,
,,,-18.3479996,99.999994040E-3,
,,,-18.3439999,59.999998659E-3,
,,,-18.3400002,179.99999225E-3,
,,,-18.3360004,140.0000006E-3,
,,,-18.3320007,140.0000006E-3,
,,,-18.3279991,140.0000006E-3,
,,,-18.3239994,219.99999881E-3,
,,,-18.3199997,179.99999225E-3,
,,,-18.3160000,179.99999225E-3,
,,,-18.3120003,179.99999225E-3,
,,,-18.3080006,140.0000006E-3,
,,,-18.3040009,140.0000006E-3,
,,,-18.2999992,99.999994040E-3,
,,,-18.2959995,140.0000006E-3,
,,,-18.2919998,140.0000006E-3,
,,,-18.2880001,99.999994040E-3,
,,,-18.2840004,59.999998659E-3,
,,,-18.2800007,140.0000006E-3,
,,,-18.2759991,99.999994040E-3,
,,,-18.2719994,19.9999996E-3,
,,,-18.2679996,140.0000006E-3,
,,,-18.2639999,99.999994040E-3,
,,,-18.2600002,179.99999225E-3,
,,,-18.2560005,179.99999225E-3,
,,,-18.2520008,140.0000006E-3,
,,,-18.2479992,140.0000006E-3,
,,,-18.2439995,99.999994040E-3,
,,,-18.2399998,140.0000006E-3,
,,,-18.2360001,140.0000006E-3,
,,,-18.2320004,179.99999225E-3,
,,,-18.2280006,179.99999225E-3,
,,,-18.2239990,140.0000006E-3,
,,,-18.2199993,179.99999225E-3,
,,,-18.2159996,140.0000006E-3,
,,,-18.2119999,219.99999881E-3,
,,,-18.2080002,179.99999225E-3,
,,,-18.2040005,140.0000006E-3,
,,,-18.2000008,59.999998659E-3,
,,,-18.1959991,99.999994040E-3,
,,,-18.1919994,99.999994040E-3,
,,,-18.1879997,140.0000006E-3,
,,,-18.1840000,140.0000006E-3,
,,,-18.1800003,179.99999225E-3,
,,,-18.1760006,140.0000006E-3,
,,,-18.1719990,179.99999225E-3,
,,,-18.1679993,140.0000006E-3,
,,,-18.1639996,140.0000006E-3,
,,,-18.1599998,219.99999881E-3,
,,,-18.1560001,219.99999881E-3,
,,,-18.1520004,219.99999881E-3,
,,,-18.1480007,179.99999225E-3,
,,,-18.1439991,179.99999225E-3,
,,,-18.1399994,179.99999225E-3,
,,,-18.1359997,259.99999046E-3,
,,,-18.1320000,179.99999225E-3,
,,,-18.1280003,219.99999881E-3,
,,,-18.1240005,140.0000006E-3,
,,,-18.1200008,219.99999881E-3,
,,,-18.1159992,219.99999881E-3,
,,,-18.1119995,219.99999881E-3,
,,,-18.1079998,219.99999881E-3,
,,,-18.1040001,259.99999046E-3,
,,,-18.1000004,179.99999225E-3,
,,,-18.0960007,179.99999225E-3,
,,,-18.0919991,219.99999881E-3,
,,,-18.0879993,179.99999225E-3,
,,,-18.0839996,179.99999225E-3,
,,,-18.0799999,179.99999225E-3,
,,,-18.0760002,179.99999225E-3,
,,,-18.0720005,219.99999881E-3,
,,,-18.0680008,179.99999225E-3,
,,,-18.0639992,219.99999881E-3,
,,,-18.0599995,259.99999046E-3,
,,,-18.0559998,299.99998212E-3,
,,,-18.0520000,259.99999046E-3,
,,,-18.0480003,259.99999046E-3,
,,,-18.0440006,259.99999046E-3,
,,,-18.0399990,299.99998212E-3,
,,,-18.0359993,299.99998212E-3,
,,,-18.0319996,259.99999046E-3,
,,,-18.0279999,340.00000358E-3,
,,,-18.0240002,340.00000358E-3,
,,,-18.0200005,340.00000358E-3,
,,,-18.0160007,299.99998212E-3,
,,,-18.0119991,379.99999523E-3,
,,,-18.0079994,340.00000358E-3,
,,,-18.0039997,340.00000358E-3,
,,,-18.0000000,340.00000358E-3,
,,,-17.9960003,379.99999523E-3,
,,,-17.9920006,340.00000358E-3,
,,,-17.9879990,459.999978542E-3,
,,,-17.9839993,419.999986887E-3,
,,,-17.9799995,459.999978542E-3,
,,,-17.9759998,500.000000000E-3,
,,,-17.9720001,459.999978542E-3,
,,,-17.9680004,500.000000000E-3,
,,,-17.9640007,500.000000000E-3,
,,,-17.9599991,500.000000000E-3,
,,,-17.9559994,500.000000000E-3,
,,,-17.9519997,579.999983311E-3,
,,,-17.9480000,459.999978542E-3,
,,,-17.9440002,459.999978542E-3,
,,,-17.9400005,459.999978542E-3,
,,,-17.9360008,500.000000000E-3,
,,,-17.9319992,500.000000000E-3,
,,,-17.9279995,500.000000000E-3,
,,,-17.9239998,539.999961853E-3,
,,,-17.9200001,539.999961853E-3,
,,,-17.9160004,500.000000000E-3,
,,,-17.9120007,579.999983311E-3,
,,,-17.9079990,539.999961853E-3,
,,,-17.9039993,579.999983311E-3,
,,,-17.8999996,539.999961853E-3,
,,,-17.8959999,539.999961853E-3,
,,,-17.8920002,500.000000000E-3,
,,,-17.8880005,500.000000000E-3,
,,,-17.8840008,539.999961853E-3,
,,,-17.8799992,579.999983311E-3,
,,,-17.8759995,620.000004768E-3,
,,,-17.8719997,620.000004768E-3,
,,,-17.8680000,579.999983311E-3,
,,,-17.8640003,539.999961853E-3,
,,,-17.8600006,620.000004768E-3,
,,,-17.8559990,620.000004768E-3,
,,,-17.8519993,659.999966621E-3,
,,,-17.8479996,659.999966621E-3,
,,,-17.8439999,699.999988079E-3,
,,,-17.8400002,699.999988079E-3,
,,,-17.8360004,699.999988079E-3,
,,,-17.8320007,659.999966621E-3,
,,,-17.8279991,740.000009537E-3,
,,,-17.8239994,740.000009537E-3,
,,,-17.8199997,699.999988079E-3,
,,,-17.8160000,699.999988079E-3,
,,,-17.8120003,740.000009537E-3,
,,,-17.8080006,699.999988079E-3,
,,,-17.8039989,779.999971390E-3,
,,,-17.7999992,740.000009537E-3,
,,,-17.7959995,819.999992847E-3,
,,,-17.7919998,899.999976158E-3,
,,,-17.7880001,859.999954700E-3,
,,,-17.7840004,939.999997616E-3,
,,,-17.7800007,1.0200000,
,,,-17.7759991,979.999959469E-3,
,,,-17.7719994,1.0599999,
,,,-17.7679996,1.0200000,
,,,-17.7639999,979.999959469E-3,
,,,-17.7600002,899.999976158E-3,
,,,-17.7560005,979.999959469E-3,
,,,-17.7520008,819.999992847E-3,
,,,-17.7479992,899.999976158E-3,
,,,-17.7439995,899.999976158E-3,
,,,-17.7399998,939.999997616E-3,
,,,-17.7360001,939.999997616E-3,
,,,-17.7320004,899.999976158E-3,
,,,-17.7280006,899.999976158E-3,
,,,-17.7239990,819.999992847E-3,
,,,-17.7199993,899.999976158E-3,
,,,-17.7159996,859.999954700E-3,
,,,-17.7119999,819.999992847E-3,
,,,-17.7080002,859.999954700E-3,
,,,-17.7040005,979.999959469E-3,
,,,-17.7000008,899.999976158E-3,
,,,-17.6959991,939.999997616E-3,
,,,-17.6919994,939.999997616E-3,
,,,-17.6879997,899.999976158E-3,
,,,-17.6840000,899.999976158E-3,
,,,-17.6800003,939.999997616E-3,
,,,-17.6760006,979.999959469E-3,
,,,-17.6719990,899.999976158E-3,
,,,-17.6679993,859.999954700E-3,
,,,-17.6639996,859.999954700E-3,
,,,-17.6599998,899.999976158E-3,
,,,-17.6560001,859.999954700E-3,
,,,-17.6520004,899.999976158E-3,
,,,-17.6480007,859.999954700E-3,
,,,-17.6439991,819.999992847E-3,
,,,-17.6399994,819.999992847E-3,
,,,-17.6359997,819.999992847E-3,
,,,-17.6320000,859.999954700E-3,
,,,-17.6280003,899.999976158E-3,
,,,-17.6240005,859.999954700E-3,
,,,-17.6200008,939.999997616E-3,
,,,-17.6159992,819.999992847E-3,
,,,-17.6119995,859.999954700E-3,
,,,-17.6079998,779.999971390E-3,
,,,-17.6040001,740.000009537E-3,
,,,-17.6000004,779.999971390E-3,
,,,-17.5960007,779.999971390E-3,
,,,-17.5919991,819.999992847E-3,
,,,-17.5879993,779.999971390E-3,
,,,-17.5839996,819.999992847E-3,
,,,-17.5799999,819.999992847E-3,
,,,-17.5760002,779.999971390E-3,
,,,-17.5720005,779.999971390E-3,
,,,-17.5680008,819.999992847E-3,
,,,-17.5639992,819.999992847E-3,
,,,-17.5599995,819.999992847E-3,
,,,-17.5559998,899.999976158E-3,
