Capstone/data/arduino/s6_L2.csv

Record Length,10000,Points,-50.00000000,-59.999998659E-3,
Sample Interval,9.999999776E-3,s,-49.99000168,-19.9999996E-3,
Trigger Point,5.00000035E3,Samples,-49.97999954,-19.9999996E-3,
,,,-49.97000122,-19.9999996E-3,
,,,-49.95999908,-19.9999996E-3,
,,,-49.95000076,-59.999998659E-3,
Source,CH1,,-49.93999863,-59.999998659E-3,
Vertical Units,V,,-49.93000031,-19.9999996E-3,
Vertical Scale,1.000000,,-49.91999817,-59.999998659E-3,
Vertical Offset,0,,-49.90999985,-19.9999996E-3,
Horizontal Units,s,,-49.90000153,-19.9999996E-3,
Horizontal Scale,9.999999776,,-49.88999939,19.9999996E-3,
Pt Fmt,Y,,-49.88000107,-59.999998659E-3,
Yzero,20.0000000E-3,,-49.86999893,-99.999994040E-3,
Probe Atten,1.000000,,-49.86000061,-19.9999996E-3,
,,,-49.84999847,-19.9999996E-3,
Note,TDS 3034B - 11:53:36 AM   4/22/2016,,-49.84000015,-19.9999996E-3,
,,,-49.83000183,-59.999998659E-3,
,,,-49.81999969,-19.9999996E-3,
,,,-49.81000137,-59.999998659E-3,
,,,-49.79999924,-19.9999996E-3,
,,,-49.79000092,-19.9999996E-3,
,,,-49.77999878,-59.999998659E-3,
,,,-49.77000046,-19.9999996E-3,
,,,-49.75999832,-19.9999996E-3,
,,,-49.75000000,19.9999996E-3,
,,,-49.74000168,-19.9999996E-3,
,,,-49.72999954,-19.9999996E-3,
,,,-49.72000122,-59.999998659E-3,
,,,-49.70999908,19.9999996E-3,
,,,-49.70000076,-19.9999996E-3,
,,,-49.68999863,19.9999996E-3,
,,,-49.68000031,-19.9999996E-3,
,,,-49.66999817,19.9999996E-3,
,,,-49.65999985,-19.9999996E-3,
,,,-49.65000153,-59.999998659E-3,
,,,-49.63999939,-19.9999996E-3,
,,,-49.63000107,-19.9999996E-3,
,,,-49.61999893,19.9999996E-3,
,,,-49.61000061,19.9999996E-3,
,,,-49.59999847,-19.9999996E-3,
,,,-49.59000015,-19.9999996E-3,
,,,-49.58000183,59.999998659E-3,
,,,-49.56999969,-59.999998659E-3,
,,,-49.56000137,-19.9999996E-3,
,,,-49.54999924,19.9999996E-3,
,,,-49.54000092,-59.999998659E-3,
,,,-49.52999878,-59.999998659E-3,
,,,-49.52000046,-19.9999996E-3,
,,,-49.50999832,-59.999998659E-3,
,,,-49.50000000,-19.9999996E-3,
,,,-49.49000168,-59.999998659E-3,
,,,-49.47999954,-59.999998659E-3,
,,,-49.47000122,-59.999998659E-3,
,,,-49.45999908,19.9999996E-3,
,,,-49.45000076,-19.9999996E-3,
,,,-49.43999863,-19.9999996E-3,
,,,-49.43000031,19.9999996E-3,
,,,-49.41999817,-19.9999996E-3,
,,,-49.40999985,19.9999996E-3,
,,,-49.40000153,-19.9999996E-3,
,,,-49.38999939,-59.999998659E-3,
,,,-49.38000107,-19.9999996E-3,
,,,-49.36999893,-59.999998659E-3,
,,,-49.36000061,-19.9999996E-3,
,,,-49.34999847,19.9999996E-3,
,,,-49.34000015,59.999998659E-3,
,,,-49.33000183,-19.9999996E-3,
,,,-49.31999969,-19.9999996E-3,
,,,-49.31000137,-19.9999996E-3,
,,,-49.29999924,-59.999998659E-3,
,,,-49.29000092,19.9999996E-3,
,,,-49.27999878,-19.9999996E-3,
,,,-49.27000046,-19.9999996E-3,
,,,-49.25999832,-19.9999996E-3,
,,,-49.25000000,19.9999996E-3,
,,,-49.24000168,-19.9999996E-3,
,,,-49.22999954,19.9999996E-3,
,,,-49.22000122,-19.9999996E-3,
,,,-49.20999908,-59.999998659E-3,
,,,-49.20000076,-19.9999996E-3,
,,,-49.18999863,19.9999996E-3,
,,,-49.18000031,-59.999998659E-3,
,,,-49.16999817,-99.999994040E-3,
,,,-49.15999985,19.9999996E-3,
,,,-49.15000153,19.9999996E-3,
,,,-49.13999939,-19.9999996E-3,
,,,-49.13000107,259.99999046E-3,
,,,-49.11999893,1.3000000,
,,,-49.11000061,1.4599999,
,,,-49.09999847,2.3799999,
,,,-49.09000015,2.6599998,
,,,-49.08000183,2.5400000,
,,,-49.06999969,2.6199999,
,,,-49.06000137,2.5000000,
,,,-49.04999924,2.4600000,
,,,-49.04000092,2.4199998,
,,,-49.02999878,2.3799999,
,,,-49.02000046,2.3000000,
,,,-49.00999832,2.2200000,
,,,-49.00000000,2.2200000,
,,,-48.99000168,2.2600000,
,,,-48.97999954,2.3000000,
,,,-48.97000122,2.3000000,
,,,-48.95999908,2.3000000,
,,,-48.95000076,2.3399999,
,,,-48.93999863,2.4199998,
,,,-48.93000031,2.5000000,
,,,-48.91999817,2.3000000,
,,,-48.90999985,2.2600000,
,,,-48.90000153,2.0599999,
,,,-48.88999939,2.2200000,
,,,-48.88000107,2.6199999,
,,,-48.86999893,3.13999987,
,,,-48.86000061,3.61999989,
,,,-48.84999847,3.37999988,
,,,-48.84000015,3.22000003,
,,,-48.83000183,3.50000000,
,,,-48.81999969,3.33999991,
,,,-48.81000137,3.61999989,
,,,-48.79999924,3.98000002,
,,,-48.79000092,3.93999982,
,,,-48.77999878,3.93999982,
,,,-48.77000046,3.57999992,
,,,-48.75999832,3.25999999,
,,,-48.75000000,3.01999998,
,,,-48.74000168,2.98000002,
,,,-48.72999954,3.05999994,
,,,-48.72000122,3.13999987,
,,,-48.70999908,3.05999994,
,,,-48.70000076,2.93999982,
,,,-48.68999863,3.01999998,
,,,-48.68000031,3.09999990,
,,,-48.66999817,3.17999983,
,,,-48.65999985,3.05999994,
,,,-48.65000153,2.85999990,
,,,-48.63999939,2.81999993,
,,,-48.63000107,2.6199999,
,,,-48.61999893,2.6199999,
,,,-48.61000061,2.5799999,
,,,-48.59999847,2.2600000,
,,,-48.59000015,2.1399999,
,,,-48.58000183,2.0200000,
,,,-48.56999969,1.8199999,
,,,-48.56000137,1.7400000,
,,,-48.54999924,1.7800000,
,,,-48.54000092,1.8199999,
,,,-48.52999878,1.6999999,
,,,-48.52000046,1.7800000,
,,,-48.50999832,2.1800001,
,,,-48.50000000,2.1399999,
,,,-48.49000168,2.0999999,
,,,-48.47999954,2.0200000,
,,,-48.47000122,2.1399999,
,,,-48.45999908,1.9799999,
,,,-48.45000076,2.0200000,
,,,-48.43999863,1.9799999,
,,,-48.43000031,1.8600000,
,,,-48.41999817,1.7800000,
,,,-48.40999985,1.6999999,
,,,-48.40000153,1.5799999,
,,,-48.38999939,1.5000000,
,,,-48.38000107,1.3800000,
,,,-48.36999893,1.4200000,
,,,-48.36000061,1.4200000,
,,,-48.34999847,1.5400000,
,,,-48.34000015,1.5000000,
,,,-48.33000183,1.6200000,
,,,-48.31999969,1.5799999,
,,,-48.31000137,1.5799999,
,,,-48.29999924,1.6600000,
,,,-48.29000092,1.6600000,
,,,-48.27999878,1.5000000,
,,,-48.27000046,1.5400000,
,,,-48.25999832,1.4599999,
,,,-48.25000000,1.5000000,
,,,-48.24000168,1.3800000,
,,,-48.22999954,1.2600000,
,,,-48.22000122,1.2200000,
,,,-48.20999908,1.2600000,
,,,-48.20000076,1.2200000,
,,,-48.18999863,1.2200000,
,,,-48.18000031,1.1799999,
,,,-48.16999817,1.0200000,
,,,-48.15999985,1.1000000,
,,,-48.15000153,1.0200000,
,,,-48.13999939,1.0200000,
,,,-48.13000107,939.999997616E-3,
,,,-48.11999893,939.999997616E-3,
,,,-48.11000061,939.999997616E-3,
,,,-48.09999847,859.999954700E-3,
,,,-48.09000015,859.999954700E-3,
,,,-48.08000183,859.999954700E-3,
,,,-48.06999969,899.999976158E-3,
,,,-48.06000137,859.999954700E-3,
,,,-48.04999924,740.000009537E-3,
,,,-48.04000092,740.000009537E-3,
,,,-48.02999878,779.999971390E-3,
,,,-48.02000046,740.000009537E-3,
,,,-48.00999832,740.000009537E-3,
,,,-48.00000000,699.999988079E-3,
,,,-47.99000168,740.000009537E-3,
,,,-47.97999954,740.000009537E-3,
,,,-47.97000122,740.000009537E-3,
,,,-47.95999908,1.1000000,
,,,-47.95000076,1.1799999,
,,,-47.93999863,1.1799999,
,,,-47.93000031,1.1799999,
,,,-47.91999817,1.5799999,
,,,-47.90999985,1.9399999,
,,,-47.90000153,2.3000000,
,,,-47.88999939,3.53999996,
,,,-47.88000107,4.13999987,
,,,-47.86999893,4.42000008,
,,,-47.86000061,4.17999983,
,,,-47.84999847,4.13999987,
,,,-47.84000015,3.89999986,
,,,-47.83000183,5.05999994,
,,,-47.81999969,5.05999994,
,,,-47.81000137,5.05999994,
,,,-47.79999924,5.05999994,
,,,-47.79000092,5.05999994,
,,,-47.77999878,4.94000006,
,,,-47.77000046,4.98000002,
,,,-47.75999832,4.53999996,
,,,-47.75000000,4.21999979,
,,,-47.74000168,3.81999993,
,,,-47.72999954,3.61999989,
,,,-47.72000122,3.33999991,
,,,-47.70999908,3.85999990,
,,,-47.70000076,4.09999990,
,,,-47.68999863,4.57999992,
,,,-47.68000031,4.05999994,
,,,-47.66999817,3.57999992,
,,,-47.65999985,3.17999983,
,,,-47.65000153,2.74000001,
,,,-47.63999939,2.3799999,
,,,-47.63000107,2.0200000,
,,,-47.61999893,1.8199999,
,,,-47.61000061,1.5799999,
,,,-47.59999847,1.3800000,
,,,-47.59000015,1.2200000,
,,,-47.58000183,1.0599999,
,,,-47.56999969,979.999959469E-3,
,,,-47.56000137,819.999992847E-3,
,,,-47.54999924,740.000009537E-3,
,,,-47.54000092,659.999966621E-3,
,,,-47.52999878,579.999983311E-3,
,,,-47.52000046,500.000000000E-3,
,,,-47.50999832,419.999986887E-3,
,,,-47.50000000,379.99999523E-3,
,,,-47.49000168,340.00000358E-3,
,,,-47.47999954,299.99998212E-3,
,,,-47.47000122,259.99999046E-3,
,,,-47.45999908,219.99999881E-3,
,,,-47.45000076,259.99999046E-3,
,,,-47.43999863,99.999994040E-3,
,,,-47.43000031,99.999994040E-3,
,,,-47.41999817,99.999994040E-3,
,,,-47.40999985,99.999994040E-3,
,,,-47.40000153,59.999998659E-3,
,,,-47.38999939,99.999994040E-3,
,,,-47.38000107,59.999998659E-3,
,,,-47.36999893,140.0000006E-3,
,,,-47.36000061,59.999998659E-3,
,,,-47.34999847,19.9999996E-3,
,,,-47.34000015,59.999998659E-3,
,,,-47.33000183,19.9999996E-3,
,,,-47.31999969,19.9999996E-3,
,,,-47.31000137,59.999998659E-3,
,,,-47.29999924,500.000000000E-3,
,,,-47.29000092,899.999976158E-3,
,,,-47.27999878,1.1799999,
,,,-47.27000046,1.4200000,
,,,-47.25999832,1.5799999,
,,,-47.25000000,1.5000000,
,,,-47.24000168,1.4599999,
,,,-47.22999954,1.5799999,
,,,-47.22000122,1.5799999,
,,,-47.20999908,1.5000000,
,,,-47.20000076,1.5799999,
,,,-47.18999863,1.5400000,
,,,-47.18000031,1.5799999,
,,,-47.16999817,1.5799999,
,,,-47.15999985,1.5799999,
,,,-47.15000153,1.5000000,
,,,-47.13999939,1.5400000,
,,,-47.13000107,1.5400000,
,,,-47.11999893,1.5000000,
,,,-47.11000061,1.4599999,
,,,-47.09999847,1.4200000,
,,,-47.09000015,1.3399999,
,,,-47.08000183,1.3800000,
,,,-47.06999969,1.3000000,
,,,-47.06000137,1.2600000,
,,,-47.04999924,1.1400000,
,,,-47.04000092,1.1000000,
,,,-47.02999878,1.0599999,
,,,-47.02000046,1.0200000,
,,,-47.00999832,939.999997616E-3,
,,,-47.00000000,899.999976158E-3,
,,,-46.99000168,939.999997616E-3,
,,,-46.97999954,819.999992847E-3,
,,,-46.97000122,740.000009537E-3,
,,,-46.95999908,740.000009537E-3,
,,,-46.95000076,740.000009537E-3,
,,,-46.93999863,659.999966621E-3,
,,,-46.93000031,659.999966621E-3,
,,,-46.91999817,699.999988079E-3,
,,,-46.90999985,579.999983311E-3,
,,,-46.90000153,620.000004768E-3,
,,,-46.88999939,539.999961853E-3,
,,,-46.88000107,539.999961853E-3,
,,,-46.86999893,539.999961853E-3,
,,,-46.86000061,579.999983311E-3,
,,,-46.84999847,539.999961853E-3,
,,,-46.84000015,620.000004768E-3,
,,,-46.83000183,579.999983311E-3,
,,,-46.81999969,539.999961853E-3,
,,,-46.81000137,500.000000000E-3,
,,,-46.79999924,500.000000000E-3,
,,,-46.79000092,459.999978542E-3,
,,,-46.77999878,459.999978542E-3,
,,,-46.77000046,419.999986887E-3,
,,,-46.75999832,379.99999523E-3,
,,,-46.75000000,419.999986887E-3,
,,,-46.74000168,419.999986887E-3,
,,,-46.72999954,340.00000358E-3,
,,,-46.72000122,379.99999523E-3,
,,,-46.70999908,379.99999523E-3,
,,,-46.70000076,379.99999523E-3,
,,,-46.68999863,299.99998212E-3,
,,,-46.68000031,340.00000358E-3,
,,,-46.66999817,340.00000358E-3,
,,,-46.65999985,379.99999523E-3,
,,,-46.65000153,299.99998212E-3,
,,,-46.63999939,259.99999046E-3,
,,,-46.63000107,259.99999046E-3,
,,,-46.61999893,299.99998212E-3,
,,,-46.61000061,259.99999046E-3,
,,,-46.59999847,219.99999881E-3,
,,,-46.59000015,219.99999881E-3,
,,,-46.58000183,219.99999881E-3,
,,,-46.56999969,219.99999881E-3,
,,,-46.56000137,259.99999046E-3,
,,,-46.54999924,179.99999225E-3,
,,,-46.54000092,179.99999225E-3,
,,,-46.52999878,140.0000006E-3,
,,,-46.52000046,219.99999881E-3,
,,,-46.50999832,219.99999881E-3,
,,,-46.50000000,140.0000006E-3,
,,,-46.49000168,179.99999225E-3,
,,,-46.47999954,179.99999225E-3,
,,,-46.47000122,219.99999881E-3,
,,,-46.45999908,219.99999881E-3,
,,,-46.45000076,179.99999225E-3,
,,,-46.43999863,140.0000006E-3,
,,,-46.43000031,219.99999881E-3,
,,,-46.42000198,179.99999225E-3,
,,,-46.40999985,179.99999225E-3,
,,,-46.40000153,219.99999881E-3,
,,,-46.38999939,259.99999046E-3,
,,,-46.38000107,219.99999881E-3,
,,,-46.36999893,259.99999046E-3,
,,,-46.36000061,219.99999881E-3,
,,,-46.34999847,299.99998212E-3,
,,,-46.34000015,259.99999046E-3,
,,,-46.33000183,259.99999046E-3,
,,,-46.31999969,299.99998212E-3,
,,,-46.31000137,340.00000358E-3,
,,,-46.29999924,219.99999881E-3,
,,,-46.29000092,259.99999046E-3,
,,,-46.27999878,299.99998212E-3,
,,,-46.27000046,259.99999046E-3,
,,,-46.25999832,219.99999881E-3,
,,,-46.25000000,259.99999046E-3,
,,,-46.24000168,179.99999225E-3,
,,,-46.22999954,259.99999046E-3,
,,,-46.22000122,140.0000006E-3,
,,,-46.20999908,99.999994040E-3,
,,,-46.20000076,179.99999225E-3,
,,,-46.18999863,179.99999225E-3,
,,,-46.18000031,179.99999225E-3,
,,,-46.17000198,99.999994040E-3,
,,,-46.15999985,140.0000006E-3,
,,,-46.15000153,140.0000006E-3,
,,,-46.13999939,140.0000006E-3,
,,,-46.13000107,179.99999225E-3,
,,,-46.11999893,219.99999881E-3,
,,,-46.11000061,259.99999046E-3,
,,,-46.09999847,299.99998212E-3,
,,,-46.09000015,340.00000358E-3,
,,,-46.08000183,340.00000358E-3,
,,,-46.06999969,299.99998212E-3,
,,,-46.06000137,340.00000358E-3,
,,,-46.04999924,299.99998212E-3,
,,,-46.04000092,340.00000358E-3,
,,,-46.02999878,379.99999523E-3,
,,,-46.02000046,379.99999523E-3,
,,,-46.00999832,419.999986887E-3,
,,,-46.00000000,340.00000358E-3,
,,,-45.99000168,299.99998212E-3,
,,,-45.97999954,259.99999046E-3,
,,,-45.97000122,219.99999881E-3,
,,,-45.95999908,259.99999046E-3,
,,,-45.95000076,299.99998212E-3,
,,,-45.93999863,179.99999225E-3,
,,,-45.93000031,259.99999046E-3,
,,,-45.92000198,259.99999046E-3,
,,,-45.90999985,419.999986887E-3,
,,,-45.90000153,459.999978542E-3,
,,,-45.88999939,379.99999523E-3,
,,,-45.88000107,379.99999523E-3,
,,,-45.86999893,379.99999523E-3,
,,,-45.86000061,340.00000358E-3,
,,,-45.84999847,419.999986887E-3,
,,,-45.84000015,459.999978542E-3,
,,,-45.83000183,459.999978542E-3,
,,,-45.81999969,459.999978542E-3,
,,,-45.81000137,459.999978542E-3,
,,,-45.79999924,459.999978542E-3,
,,,-45.79000092,500.000000000E-3,
,,,-45.77999878,419.999986887E-3,
,,,-45.77000046,419.999986887E-3,
,,,-45.75999832,379.99999523E-3,
,,,-45.75000000,379.99999523E-3,
,,,-45.74000168,340.00000358E-3,
,,,-45.72999954,299.99998212E-3,
,,,-45.72000122,299.99998212E-3,
,,,-45.70999908,299.99998212E-3,
,,,-45.70000076,379.99999523E-3,
,,,-45.68999863,379.99999523E-3,
,,,-45.68000031,379.99999523E-3,
,,,-45.67000198,419.999986887E-3,
,,,-45.65999985,379.99999523E-3,
,,,-45.65000153,379.99999523E-3,
,,,-45.63999939,379.99999523E-3,
,,,-45.63000107,379.99999523E-3,
,,,-45.61999893,379.99999523E-3,
,,,-45.61000061,379.99999523E-3,
,,,-45.59999847,299.99998212E-3,
,,,-45.59000015,379.99999523E-3,
,,,-45.58000183,340.00000358E-3,
,,,-45.56999969,340.00000358E-3,
,,,-45.56000137,259.99999046E-3,
,,,-45.54999924,299.99998212E-3,
,,,-45.54000092,219.99999881E-3,
,,,-45.52999878,219.99999881E-3,
,,,-45.52000046,219.99999881E-3,
,,,-45.50999832,179.99999225E-3,
,,,-45.50000000,179.99999225E-3,
,,,-45.49000168,140.0000006E-3,
,,,-45.47999954,140.0000006E-3,
,,,-45.47000122,140.0000006E-3,
,,,-45.45999908,219.99999881E-3,
,,,-45.45000076,219.99999881E-3,
,,,-45.43999863,179.99999225E-3,
,,,-45.43000031,219.99999881E-3,
,,,-45.42000198,140.0000006E-3,
,,,-45.40999985,219.99999881E-3,
,,,-45.40000153,179.99999225E-3,
,,,-45.38999939,259.99999046E-3,
,,,-45.38000107,219.99999881E-3,
,,,-45.36999893,219.99999881E-3,
,,,-45.36000061,259.99999046E-3,
,,,-45.34999847,219.99999881E-3,
,,,-45.34000015,179.99999225E-3,
,,,-45.33000183,259.99999046E-3,
,,,-45.31999969,179.99999225E-3,
,,,-45.31000137,259.99999046E-3,
,,,-45.29999924,219.99999881E-3,
,,,-45.29000092,259.99999046E-3,
,,,-45.27999878,219.99999881E-3,
,,,-45.27000046,179.99999225E-3,
,,,-45.25999832,140.0000006E-3,
,,,-45.25000000,140.0000006E-3,
,,,-45.24000168,140.0000006E-3,
,,,-45.22999954,140.0000006E-3,
,,,-45.22000122,99.999994040E-3,
,,,-45.20999908,219.99999881E-3,
,,,-45.20000076,179.99999225E-3,
,,,-45.18999863,219.99999881E-3,
,,,-45.18000031,179.99999225E-3,
,,,-45.17000198,179.99999225E-3,
,,,-45.15999985,179.99999225E-3,
,,,-45.15000153,179.99999225E-3,
,,,-45.13999939,179.99999225E-3,
,,,-45.13000107,140.0000006E-3,
,,,-45.11999893,219.99999881E-3,
,,,-45.11000061,179.99999225E-3,
,,,-45.09999847,179.99999225E-3,
,,,-45.09000015,219.99999881E-3,
,,,-45.08000183,259.99999046E-3,
,,,-45.06999969,299.99998212E-3,
,,,-45.06000137,299.99998212E-3,
,,,-45.04999924,299.99998212E-3,
,,,-45.04000092,340.00000358E-3,
,,,-45.02999878,340.00000358E-3,
,,,-45.02000046,379.99999523E-3,
,,,-45.00999832,299.99998212E-3,
,,,-45.00000000,379.99999523E-3,
,,,-44.99000168,379.99999523E-3,
,,,-44.97999954,459.999978542E-3,
,,,-44.97000122,379.99999523E-3,
,,,-44.95999908,459.999978542E-3,
,,,-44.95000076,379.99999523E-3,
,,,-44.93999863,379.99999523E-3,
,,,-44.93000031,340.00000358E-3,
,,,-44.92000198,340.00000358E-3,
,,,-44.90999985,299.99998212E-3,
,,,-44.90000153,219.99999881E-3,
,,,-44.88999939,219.99999881E-3,
,,,-44.88000107,259.99999046E-3,
,,,-44.86999893,219.99999881E-3,
,,,-44.86000061,219.99999881E-3,
,,,-44.84999847,259.99999046E-3,
,,,-44.84000015,219.99999881E-3,
,,,-44.83000183,219.99999881E-3,
,,,-44.81999969,179.99999225E-3,
,,,-44.81000137,219.99999881E-3,
,,,-44.79999924,219.99999881E-3,
,,,-44.79000092,259.99999046E-3,
,,,-44.77999878,259.99999046E-3,
,,,-44.77000046,219.99999881E-3,
,,,-44.75999832,219.99999881E-3,
,,,-44.75000000,259.99999046E-3,
,,,-44.74000168,299.99998212E-3,
,,,-44.72999954,340.00000358E-3,
,,,-44.72000122,299.99998212E-3,
,,,-44.70999908,219.99999881E-3,
,,,-44.70000076,299.99998212E-3,
,,,-44.68999863,219.99999881E-3,
,,,-44.68000031,299.99998212E-3,
,,,-44.67000198,259.99999046E-3,
,,,-44.65999985,259.99999046E-3,
,,,-44.65000153,299.99998212E-3,
,,,-44.63999939,259.99999046E-3,
,,,-44.63000107,299.99998212E-3,
,,,-44.61999893,259.99999046E-3,
,,,-44.61000061,259.99999046E-3,
,,,-44.59999847,340.00000358E-3,
,,,-44.59000015,340.00000358E-3,
,,,-44.58000183,299.99998212E-3,
,,,-44.56999969,299.99998212E-3,
,,,-44.56000137,379.99999523E-3,
,,,-44.54999924,419.999986887E-3,
,,,-44.54000092,500.000000000E-3,
,,,-44.52999878,539.999961853E-3,
,,,-44.52000046,500.000000000E-3,
,,,-44.50999832,459.999978542E-3,
,,,-44.50000000,500.000000000E-3,
,,,-44.49000168,500.000000000E-3,
,,,-44.47999954,459.999978542E-3,
,,,-44.47000122,379.99999523E-3,
,,,-44.45999908,379.99999523E-3,
,,,-44.45000076,259.99999046E-3,
,,,-44.43999863,299.99998212E-3,
,,,-44.43000031,219.99999881E-3,
,,,-44.42000198,219.99999881E-3,
,,,-44.40999985,219.99999881E-3,
,,,-44.40000153,140.0000006E-3,
,,,-44.38999939,219.99999881E-3,
,,,-44.38000107,179.99999225E-3,
,,,-44.36999893,259.99999046E-3,
,,,-44.36000061,259.99999046E-3,
,,,-44.34999847,259.99999046E-3,
,,,-44.34000015,219.99999881E-3,
,,,-44.33000183,179.99999225E-3,
,,,-44.31999969,179.99999225E-3,
,,,-44.31000137,219.99999881E-3,
,,,-44.29999924,219.99999881E-3,
,,,-44.29000092,179.99999225E-3,
,,,-44.27999878,179.99999225E-3,
,,,-44.27000046,179.99999225E-3,
,,,-44.25999832,219.99999881E-3,
,,,-44.25000000,140.0000006E-3,
,,,-44.24000168,99.999994040E-3,
,,,-44.22999954,140.0000006E-3,
,,,-44.22000122,179.99999225E-3,
,,,-44.20999908,140.0000006E-3,
,,,-44.20000076,219.99999881E-3,
,,,-44.18999863,179.99999225E-3,
,,,-44.18000031,140.0000006E-3,
,,,-44.17000198,219.99999881E-3,
,,,-44.15999985,219.99999881E-3,
,,,-44.15000153,259.99999046E-3,
,,,-44.13999939,219.99999881E-3,
,,,-44.13000107,219.99999881E-3,
,,,-44.11999893,179.99999225E-3,
,,,-44.11000061,59.999998659E-3,
,,,-44.09999847,140.0000006E-3,
,,,-44.09000015,219.99999881E-3,
,,,-44.08000183,59.999998659E-3,
,,,-44.06999969,99.999994040E-3,
,,,-44.06000137,59.999998659E-3,
,,,-44.04999924,99.999994040E-3,
,,,-44.04000092,59.999998659E-3,
,,,-44.02999878,99.999994040E-3,
,,,-44.02000046,59.999998659E-3,
,,,-44.00999832,59.999998659E-3,
,,,-44.00000000,-59.999998659E-3,
,,,-43.99000168,-19.9999996E-3,
,,,-43.97999954,59.999998659E-3,
,,,-43.97000122,99.999994040E-3,
,,,-43.95999908,-19.9999996E-3,
,,,-43.95000076,19.9999996E-3,
,,,-43.93999863,59.999998659E-3,
,,,-43.93000031,59.999998659E-3,
,,,-43.92000198,59.999998659E-3,
,,,-43.90999985,19.9999996E-3,
,,,-43.90000153,19.9999996E-3,
,,,-43.88999939,59.999998659E-3,
,,,-43.88000107,19.9999996E-3,
,,,-43.86999893,-19.9999996E-3,
,,,-43.86000061,59.999998659E-3,
,,,-43.84999847,59.999998659E-3,
,,,-43.84000015,59.999998659E-3,
,,,-43.83000183,19.9999996E-3,
,,,-43.81999969,19.9999996E-3,
,,,-43.81000137,19.9999996E-3,
,,,-43.79999924,19.9999996E-3,
,,,-43.79000092,59.999998659E-3,
,,,-43.77999878,59.999998659E-3,
,,,-43.77000046,59.999998659E-3,
,,,-43.75999832,19.9999996E-3,
,,,-43.75000000,19.9999996E-3,
,,,-43.74000168,-19.9999996E-3,
