Capstone/data/arduino/ss1_R2.csv

Record Length,10000,Points,-20.0000000,219.99999881E-3,
Sample Interval,4.00000019E-3,s,-19.9960003,179.99999225E-3,
Trigger Point,5.00000000E3,Samples,-19.9920006,219.99999881E-3,
,,,-19.9880009,219.99999881E-3,
,,,-19.9839993,179.99999225E-3,
,,,-19.9799995,179.99999225E-3,
Source,CH1,,-19.9759998,140.0000006E-3,
Vertical Units,V,,-19.9720001,219.99999881E-3,
Vertical Scale,1.000000,,-19.9680004,219.99999881E-3,
Vertical Offset,0,,-19.9640007,299.99998212E-3,
Horizontal Units,s,,-19.9599991,299.99998212E-3,
Horizontal Scale,4.00000019,,-19.9559994,459.999978542E-3,
Pt Fmt,Y,,-19.9519997,620.000004768E-3,
Yzero,20.0000000E-3,,-19.9480000,659.999966621E-3,
Probe Atten,1.000000,,-19.9440002,659.999966621E-3,
,,,-19.9400005,620.000004768E-3,
Note,TDS 3034B - 10:23:34 AM   4/22/2016,,-19.9360008,699.999988079E-3,
,,,-19.9319992,659.999966621E-3,
,,,-19.9279995,579.999983311E-3,
,,,-19.9239998,579.999983311E-3,
,,,-19.9200001,579.999983311E-3,
,,,-19.9160004,579.999983311E-3,
,,,-19.9120007,539.999961853E-3,
,,,-19.9080009,500.000000000E-3,
,,,-19.9039993,500.000000000E-3,
,,,-19.8999996,539.999961853E-3,
,,,-19.8959999,539.999961853E-3,
,,,-19.8920002,459.999978542E-3,
,,,-19.8880005,459.999978542E-3,
,,,-19.8840008,500.000000000E-3,
,,,-19.8799992,459.999978542E-3,
,,,-19.8759995,500.000000000E-3,
,,,-19.8719997,500.000000000E-3,
,,,-19.8680000,379.99999523E-3,
,,,-19.8640003,459.999978542E-3,
,,,-19.8600006,459.999978542E-3,
,,,-19.8560009,459.999978542E-3,
,,,-19.8519993,419.999986887E-3,
,,,-19.8479996,379.99999523E-3,
,,,-19.8439999,379.99999523E-3,
,,,-19.8400002,419.999986887E-3,
,,,-19.8360004,340.00000358E-3,
,,,-19.8320007,419.999986887E-3,
,,,-19.8279991,340.00000358E-3,
,,,-19.8239994,379.99999523E-3,
,,,-19.8199997,379.99999523E-3,
,,,-19.8160000,379.99999523E-3,
,,,-19.8120003,419.999986887E-3,
,,,-19.8080006,419.999986887E-3,
,,,-19.8040009,500.000000000E-3,
,,,-19.7999992,459.999978542E-3,
,,,-19.7959995,459.999978542E-3,
,,,-19.7919998,419.999986887E-3,
,,,-19.7880001,459.999978542E-3,
,,,-19.7840004,419.999986887E-3,
,,,-19.7800007,459.999978542E-3,
,,,-19.7759991,379.99999523E-3,
,,,-19.7719994,419.999986887E-3,
,,,-19.7679996,419.999986887E-3,
,,,-19.7639999,419.999986887E-3,
,,,-19.7600002,419.999986887E-3,
,,,-19.7560005,419.999986887E-3,
,,,-19.7520008,459.999978542E-3,
,,,-19.7479992,419.999986887E-3,
,,,-19.7439995,459.999978542E-3,
,,,-19.7399998,459.999978542E-3,
,,,-19.7360001,419.999986887E-3,
,,,-19.7320004,379.99999523E-3,
,,,-19.7280006,419.999986887E-3,
,,,-19.7240009,459.999978542E-3,
,,,-19.7199993,579.999983311E-3,
,,,-19.7159996,699.999988079E-3,
,,,-19.7119999,620.000004768E-3,
,,,-19.7080002,620.000004768E-3,
,,,-19.7040005,620.000004768E-3,
,,,-19.7000008,620.000004768E-3,
,,,-19.6959991,579.999983311E-3,
,,,-19.6919994,620.000004768E-3,
,,,-19.6879997,659.999966621E-3,
,,,-19.6840000,740.000009537E-3,
,,,-19.6800003,699.999988079E-3,
,,,-19.6760006,699.999988079E-3,
,,,-19.6720009,699.999988079E-3,
,,,-19.6679993,740.000009537E-3,
,,,-19.6639996,740.000009537E-3,
,,,-19.6599998,699.999988079E-3,
,,,-19.6560001,659.999966621E-3,
,,,-19.6520004,699.999988079E-3,
,,,-19.6480007,699.999988079E-3,
,,,-19.6439991,620.000004768E-3,
,,,-19.6399994,620.000004768E-3,
,,,-19.6359997,620.000004768E-3,
,,,-19.6320000,579.999983311E-3,
,,,-19.6280003,539.999961853E-3,
,,,-19.6240005,539.999961853E-3,
,,,-19.6200008,500.000000000E-3,
,,,-19.6159992,539.999961853E-3,
,,,-19.6119995,500.000000000E-3,
,,,-19.6079998,419.999986887E-3,
,,,-19.6040001,500.000000000E-3,
,,,-19.6000004,459.999978542E-3,
,,,-19.5960007,500.000000000E-3,
,,,-19.5919991,459.999978542E-3,
,,,-19.5879993,419.999986887E-3,
,,,-19.5839996,419.999986887E-3,
,,,-19.5799999,459.999978542E-3,
,,,-19.5760002,419.999986887E-3,
,,,-19.5720005,459.999978542E-3,
,,,-19.5680008,419.999986887E-3,
,,,-19.5639992,419.999986887E-3,
,,,-19.5599995,459.999978542E-3,
,,,-19.5559998,459.999978542E-3,
,,,-19.5520000,459.999978542E-3,
,,,-19.5480003,500.000000000E-3,
,,,-19.5440006,419.999986887E-3,
,,,-19.5400009,500.000000000E-3,
,,,-19.5359993,459.999978542E-3,
,,,-19.5319996,500.000000000E-3,
,,,-19.5279999,500.000000000E-3,
,,,-19.5240002,579.999983311E-3,
,,,-19.5200005,579.999983311E-3,
,,,-19.5160007,620.000004768E-3,
,,,-19.5119991,620.000004768E-3,
,,,-19.5079994,620.000004768E-3,
,,,-19.5039997,579.999983311E-3,
,,,-19.5000000,579.999983311E-3,
,,,-19.4960003,620.000004768E-3,
,,,-19.4920006,539.999961853E-3,
,,,-19.4880009,500.000000000E-3,
,,,-19.4839993,620.000004768E-3,
,,,-19.4799995,579.999983311E-3,
,,,-19.4759998,579.999983311E-3,
,,,-19.4720001,539.999961853E-3,
,,,-19.4680004,579.999983311E-3,
,,,-19.4640007,539.999961853E-3,
,,,-19.4599991,539.999961853E-3,
,,,-19.4559994,500.000000000E-3,
,,,-19.4519997,539.999961853E-3,
,,,-19.4480000,419.999986887E-3,
,,,-19.4440002,500.000000000E-3,
,,,-19.4400005,579.999983311E-3,
,,,-19.4360008,579.999983311E-3,
,,,-19.4319992,500.000000000E-3,
,,,-19.4279995,539.999961853E-3,
,,,-19.4239998,539.999961853E-3,
,,,-19.4200001,579.999983311E-3,
,,,-19.4160004,539.999961853E-3,
,,,-19.4120007,579.999983311E-3,
,,,-19.4079990,579.999983311E-3,
,,,-19.4039993,579.999983311E-3,
,,,-19.3999996,579.999983311E-3,
,,,-19.3959999,579.999983311E-3,
,,,-19.3920002,579.999983311E-3,
,,,-19.3880005,500.000000000E-3,
,,,-19.3840008,539.999961853E-3,
,,,-19.3799992,459.999978542E-3,
,,,-19.3759995,579.999983311E-3,
,,,-19.3719997,500.000000000E-3,
,,,-19.3680000,539.999961853E-3,
,,,-19.3640003,500.000000000E-3,
,,,-19.3600006,659.999966621E-3,
,,,-19.3560009,659.999966621E-3,
,,,-19.3519993,659.999966621E-3,
,,,-19.3479996,620.000004768E-3,
,,,-19.3439999,539.999961853E-3,
,,,-19.3400002,620.000004768E-3,
,,,-19.3360004,579.999983311E-3,
,,,-19.3320007,579.999983311E-3,
,,,-19.3279991,500.000000000E-3,
,,,-19.3239994,539.999961853E-3,
,,,-19.3199997,579.999983311E-3,
,,,-19.3160000,539.999961853E-3,
,,,-19.3120003,579.999983311E-3,
,,,-19.3080006,579.999983311E-3,
,,,-19.3040009,659.999966621E-3,
,,,-19.2999992,779.999971390E-3,
,,,-19.2959995,819.999992847E-3,
,,,-19.2919998,859.999954700E-3,
,,,-19.2880001,819.999992847E-3,
,,,-19.2840004,899.999976158E-3,
,,,-19.2800007,899.999976158E-3,
,,,-19.2759991,899.999976158E-3,
,,,-19.2719994,979.999959469E-3,
,,,-19.2679996,899.999976158E-3,
,,,-19.2639999,899.999976158E-3,
,,,-19.2600002,899.999976158E-3,
,,,-19.2560005,859.999954700E-3,
,,,-19.2520008,859.999954700E-3,
,,,-19.2479992,939.999997616E-3,
,,,-19.2439995,1.0200000,
,,,-19.2399998,939.999997616E-3,
,,,-19.2360001,1.0200000,
,,,-19.2320004,1.0200000,
,,,-19.2280006,1.0200000,
,,,-19.2239990,939.999997616E-3,
,,,-19.2199993,979.999959469E-3,
,,,-19.2159996,939.999997616E-3,
,,,-19.2119999,899.999976158E-3,
,,,-19.2080002,859.999954700E-3,
,,,-19.2040005,939.999997616E-3,
,,,-19.2000008,899.999976158E-3,
,,,-19.1959991,939.999997616E-3,
,,,-19.1919994,899.999976158E-3,
,,,-19.1879997,979.999959469E-3,
,,,-19.1840000,859.999954700E-3,
,,,-19.1800003,979.999959469E-3,
,,,-19.1760006,1.0200000,
,,,-19.1720009,979.999959469E-3,
,,,-19.1679993,1.0200000,
,,,-19.1639996,1.0200000,
,,,-19.1599998,979.999959469E-3,
,,,-19.1560001,1.0200000,
,,,-19.1520004,1.0599999,
,,,-19.1480007,1.0599999,
,,,-19.1439991,979.999959469E-3,
,,,-19.1399994,979.999959469E-3,
,,,-19.1359997,939.999997616E-3,
,,,-19.1320000,939.999997616E-3,
,,,-19.1280003,979.999959469E-3,
,,,-19.1240005,899.999976158E-3,
,,,-19.1200008,899.999976158E-3,
,,,-19.1159992,819.999992847E-3,
,,,-19.1119995,859.999954700E-3,
,,,-19.1079998,859.999954700E-3,
,,,-19.1040001,779.999971390E-3,
,,,-19.1000004,740.000009537E-3,
,,,-19.0960007,740.000009537E-3,
,,,-19.0919991,659.999966621E-3,
,,,-19.0879993,659.999966621E-3,
,,,-19.0839996,620.000004768E-3,
,,,-19.0799999,579.999983311E-3,
,,,-19.0760002,579.999983311E-3,
,,,-19.0720005,579.999983311E-3,
,,,-19.0680008,539.999961853E-3,
,,,-19.0639992,539.999961853E-3,
,,,-19.0599995,459.999978542E-3,
,,,-19.0559998,459.999978542E-3,
,,,-19.0520000,459.999978542E-3,
,,,-19.0480003,500.000000000E-3,
,,,-19.0440006,459.999978542E-3,
,,,-19.0399990,419.999986887E-3,
,,,-19.0359993,379.99999523E-3,
,,,-19.0319996,459.999978542E-3,
,,,-19.0279999,539.999961853E-3,
,,,-19.0240002,459.999978542E-3,
,,,-19.0200005,419.999986887E-3,
,,,-19.0160007,379.99999523E-3,
,,,-19.0119991,379.99999523E-3,
,,,-19.0079994,459.999978542E-3,
,,,-19.0039997,419.999986887E-3,
,,,-19.0000000,379.99999523E-3,
,,,-18.9960003,379.99999523E-3,
,,,-18.9920006,379.99999523E-3,
,,,-18.9880009,419.999986887E-3,
,,,-18.9839993,340.00000358E-3,
,,,-18.9799995,299.99998212E-3,
,,,-18.9759998,299.99998212E-3,
,,,-18.9720001,340.00000358E-3,
,,,-18.9680004,379.99999523E-3,
,,,-18.9640007,379.99999523E-3,
,,,-18.9599991,379.99999523E-3,
,,,-18.9559994,340.00000358E-3,
,,,-18.9519997,340.00000358E-3,
,,,-18.9480000,340.00000358E-3,
,,,-18.9440002,340.00000358E-3,
,,,-18.9400005,340.00000358E-3,
,,,-18.9360008,340.00000358E-3,
,,,-18.9319992,379.99999523E-3,
,,,-18.9279995,299.99998212E-3,
,,,-18.9239998,379.99999523E-3,
,,,-18.9200001,340.00000358E-3,
,,,-18.9160004,340.00000358E-3,
,,,-18.9120007,340.00000358E-3,
,,,-18.9079990,340.00000358E-3,
,,,-18.9039993,299.99998212E-3,
,,,-18.8999996,299.99998212E-3,
,,,-18.8959999,299.99998212E-3,
,,,-18.8920002,299.99998212E-3,
,,,-18.8880005,299.99998212E-3,
,,,-18.8840008,379.99999523E-3,
,,,-18.8799992,259.99999046E-3,
,,,-18.8759995,299.99998212E-3,
,,,-18.8719997,259.99999046E-3,
,,,-18.8680000,259.99999046E-3,
,,,-18.8640003,259.99999046E-3,
,,,-18.8600006,259.99999046E-3,
,,,-18.8559990,259.99999046E-3,
,,,-18.8519993,219.99999881E-3,
,,,-18.8479996,259.99999046E-3,
,,,-18.8439999,259.99999046E-3,
,,,-18.8400002,259.99999046E-3,
,,,-18.8360004,259.99999046E-3,
,,,-18.8320007,259.99999046E-3,
,,,-18.8279991,299.99998212E-3,
,,,-18.8239994,299.99998212E-3,
,,,-18.8199997,219.99999881E-3,
,,,-18.8160000,179.99999225E-3,
,,,-18.8120003,299.99998212E-3,
,,,-18.8080006,299.99998212E-3,
,,,-18.8040009,299.99998212E-3,
,,,-18.7999992,340.00000358E-3,
,,,-18.7959995,340.00000358E-3,
,,,-18.7919998,379.99999523E-3,
,,,-18.7880001,299.99998212E-3,
,,,-18.7840004,299.99998212E-3,
,,,-18.7800007,259.99999046E-3,
,,,-18.7759991,259.99999046E-3,
,,,-18.7719994,299.99998212E-3,
,,,-18.7679996,299.99998212E-3,
,,,-18.7639999,299.99998212E-3,
,,,-18.7600002,259.99999046E-3,
,,,-18.7560005,299.99998212E-3,
,,,-18.7520008,299.99998212E-3,
,,,-18.7479992,219.99999881E-3,
,,,-18.7439995,259.99999046E-3,
,,,-18.7399998,299.99998212E-3,
,,,-18.7360001,179.99999225E-3,
,,,-18.7320004,259.99999046E-3,
,,,-18.7280006,259.99999046E-3,
,,,-18.7239990,259.99999046E-3,
,,,-18.7199993,299.99998212E-3,
,,,-18.7159996,299.99998212E-3,
,,,-18.7119999,340.00000358E-3,
,,,-18.7080002,299.99998212E-3,
,,,-18.7040005,299.99998212E-3,
,,,-18.7000008,299.99998212E-3,
,,,-18.6959991,259.99999046E-3,
,,,-18.6919994,259.99999046E-3,
,,,-18.6879997,219.99999881E-3,
,,,-18.6840000,259.99999046E-3,
,,,-18.6800003,219.99999881E-3,
,,,-18.6760006,259.99999046E-3,
,,,-18.6720009,219.99999881E-3,
,,,-18.6679993,219.99999881E-3,
,,,-18.6639996,179.99999225E-3,
,,,-18.6599998,179.99999225E-3,
,,,-18.6560001,179.99999225E-3,
,,,-18.6520004,179.99999225E-3,
,,,-18.6480007,179.99999225E-3,
,,,-18.6439991,219.99999881E-3,
,,,-18.6399994,140.0000006E-3,
,,,-18.6359997,140.0000006E-3,
,,,-18.6320000,219.99999881E-3,
,,,-18.6280003,99.999994040E-3,
,,,-18.6240005,179.99999225E-3,
,,,-18.6200008,140.0000006E-3,
,,,-18.6159992,140.0000006E-3,
,,,-18.6119995,140.0000006E-3,
,,,-18.6079998,99.999994040E-3,
,,,-18.6040001,99.999994040E-3,
,,,-18.6000004,219.99999881E-3,
,,,-18.5960007,140.0000006E-3,
,,,-18.5919991,179.99999225E-3,
,,,-18.5879993,99.999994040E-3,
,,,-18.5839996,179.99999225E-3,
,,,-18.5799999,179.99999225E-3,
,,,-18.5760002,99.999994040E-3,
,,,-18.5720005,140.0000006E-3,
,,,-18.5680008,99.999994040E-3,
,,,-18.5639992,99.999994040E-3,
,,,-18.5599995,99.999994040E-3,
,,,-18.5559998,99.999994040E-3,
,,,-18.5520000,140.0000006E-3,
,,,-18.5480003,99.999994040E-3,
,,,-18.5440006,99.999994040E-3,
,,,-18.5399990,59.999998659E-3,
,,,-18.5359993,99.999994040E-3,
,,,-18.5319996,59.999998659E-3,
,,,-18.5279999,99.999994040E-3,
,,,-18.5240002,179.99999225E-3,
,,,-18.5200005,99.999994040E-3,
,,,-18.5160007,59.999998659E-3,
,,,-18.5119991,59.999998659E-3,
,,,-18.5079994,19.9999996E-3,
,,,-18.5039997,59.999998659E-3,
,,,-18.5000000,59.999998659E-3,
,,,-18.4960003,99.999994040E-3,
,,,-18.4920006,19.9999996E-3,
,,,-18.4880009,99.999994040E-3,
,,,-18.4839993,59.999998659E-3,
,,,-18.4799995,19.9999996E-3,
,,,-18.4759998,99.999994040E-3,
,,,-18.4720001,99.999994040E-3,
,,,-18.4680004,19.9999996E-3,
,,,-18.4640007,59.999998659E-3,
,,,-18.4599991,59.999998659E-3,
,,,-18.4559994,59.999998659E-3,
,,,-18.4519997,59.999998659E-3,
,,,-18.4480000,59.999998659E-3,
,,,-18.4440002,19.9999996E-3,
,,,-18.4400005,59.999998659E-3,
,,,-18.4360008,59.999998659E-3,
,,,-18.4319992,19.9999996E-3,
,,,-18.4279995,19.9999996E-3,
,,,-18.4239998,59.999998659E-3,
,,,-18.4200001,19.9999996E-3,
,,,-18.4160004,59.999998659E-3,
,,,-18.4120007,19.9999996E-3,
,,,-18.4079990,99.999994040E-3,
,,,-18.4039993,59.999998659E-3,
,,,-18.3999996,59.999998659E-3,
,,,-18.3959999,19.9999996E-3,
,,,-18.3920002,59.999998659E-3,
,,,-18.3880005,-19.9999996E-3,
,,,-18.3840008,59.999998659E-3,
,,,-18.3799992,59.999998659E-3,
,,,-18.3759995,19.9999996E-3,
,,,-18.3719997,-19.9999996E-3,
,,,-18.3680000,59.999998659E-3,
,,,-18.3640003,19.9999996E-3,
,,,-18.3600006,59.999998659E-3,
,,,-18.3559990,99.999994040E-3,
,,,-18.3519993,59.999998659E-3,
,,,-18.3479996,99.999994040E-3,
,,,-18.3439999,99.999994040E-3,
,,,-18.3400002,99.999994040E-3,
,,,-18.3360004,59.999998659E-3,
,,,-18.3320007,59.999998659E-3,
,,,-18.3279991,99.999994040E-3,
,,,-18.3239994,99.999994040E-3,
,,,-18.3199997,140.0000006E-3,
,,,-18.3160000,99.999994040E-3,
,,,-18.3120003,219.99999881E-3,
,,,-18.3080006,59.999998659E-3,
,,,-18.3040009,179.99999225E-3,
,,,-18.2999992,99.999994040E-3,
,,,-18.2959995,99.999994040E-3,
,,,-18.2919998,179.99999225E-3,
,,,-18.2880001,140.0000006E-3,
,,,-18.2840004,59.999998659E-3,
,,,-18.2800007,99.999994040E-3,
,,,-18.2759991,219.99999881E-3,
,,,-18.2719994,140.0000006E-3,
,,,-18.2679996,99.999994040E-3,
,,,-18.2639999,219.99999881E-3,
,,,-18.2600002,99.999994040E-3,
,,,-18.2560005,140.0000006E-3,
,,,-18.2520008,99.999994040E-3,
,,,-18.2479992,179.99999225E-3,
,,,-18.2439995,179.99999225E-3,
,,,-18.2399998,179.99999225E-3,
,,,-18.2360001,140.0000006E-3,
,,,-18.2320004,179.99999225E-3,
,,,-18.2280006,140.0000006E-3,
,,,-18.2239990,140.0000006E-3,
,,,-18.2199993,179.99999225E-3,
,,,-18.2159996,179.99999225E-3,
,,,-18.2119999,140.0000006E-3,
,,,-18.2080002,99.999994040E-3,
,,,-18.2040005,179.99999225E-3,
,,,-18.2000008,219.99999881E-3,
,,,-18.1959991,259.99999046E-3,
,,,-18.1919994,219.99999881E-3,
,,,-18.1879997,99.999994040E-3,
,,,-18.1840000,140.0000006E-3,
,,,-18.1800003,99.999994040E-3,
,,,-18.1760006,140.0000006E-3,
,,,-18.1719990,179.99999225E-3,
,,,-18.1679993,179.99999225E-3,
,,,-18.1639996,259.99999046E-3,
,,,-18.1599998,219.99999881E-3,
,,,-18.1560001,259.99999046E-3,
,,,-18.1520004,259.99999046E-3,
,,,-18.1480007,259.99999046E-3,
,,,-18.1439991,259.99999046E-3,
,,,-18.1399994,299.99998212E-3,
,,,-18.1359997,259.99999046E-3,
,,,-18.1320000,299.99998212E-3,
,,,-18.1280003,340.00000358E-3,
,,,-18.1240005,340.00000358E-3,
,,,-18.1200008,299.99998212E-3,
,,,-18.1159992,299.99998212E-3,
,,,-18.1119995,259.99999046E-3,
,,,-18.1079998,299.99998212E-3,
,,,-18.1040001,259.99999046E-3,
,,,-18.1000004,299.99998212E-3,
,,,-18.0960007,299.99998212E-3,
,,,-18.0919991,259.99999046E-3,
,,,-18.0879993,219.99999881E-3,
,,,-18.0839996,259.99999046E-3,
,,,-18.0799999,299.99998212E-3,
,,,-18.0760002,340.00000358E-3,
,,,-18.0720005,340.00000358E-3,
,,,-18.0680008,340.00000358E-3,
,,,-18.0639992,259.99999046E-3,
,,,-18.0599995,340.00000358E-3,
,,,-18.0559998,340.00000358E-3,
,,,-18.0520000,299.99998212E-3,
,,,-18.0480003,299.99998212E-3,
,,,-18.0440006,299.99998212E-3,
,,,-18.0399990,340.00000358E-3,
,,,-18.0359993,340.00000358E-3,
,,,-18.0319996,340.00000358E-3,
,,,-18.0279999,419.999986887E-3,
,,,-18.0240002,379.99999523E-3,
,,,-18.0200005,379.99999523E-3,
,,,-18.0160007,459.999978542E-3,
,,,-18.0119991,459.999978542E-3,
,,,-18.0079994,500.000000000E-3,
,,,-18.0039997,419.999986887E-3,
,,,-18.0000000,500.000000000E-3,
,,,-17.9960003,500.000000000E-3,
,,,-17.9920006,500.000000000E-3,
,,,-17.9879990,539.999961853E-3,
,,,-17.9839993,539.999961853E-3,
,,,-17.9799995,539.999961853E-3,
,,,-17.9759998,500.000000000E-3,
,,,-17.9720001,539.999961853E-3,
,,,-17.9680004,459.999978542E-3,
,,,-17.9640007,500.000000000E-3,
,,,-17.9599991,500.000000000E-3,
,,,-17.9559994,500.000000000E-3,
,,,-17.9519997,500.000000000E-3,
,,,-17.9480000,500.000000000E-3,
,,,-17.9440002,419.999986887E-3,
,,,-17.9400005,419.999986887E-3,
,,,-17.9360008,500.000000000E-3,
,,,-17.9319992,500.000000000E-3,
,,,-17.9279995,419.999986887E-3,
,,,-17.9239998,459.999978542E-3,
,,,-17.9200001,459.999978542E-3,
,,,-17.9160004,500.000000000E-3,
,,,-17.9120007,459.999978542E-3,
,,,-17.9079990,459.999978542E-3,
,,,-17.9039993,459.999978542E-3,
,,,-17.8999996,539.999961853E-3,
,,,-17.8959999,539.999961853E-3,
,,,-17.8920002,539.999961853E-3,
,,,-17.8880005,459.999978542E-3,
,,,-17.8840008,539.999961853E-3,
,,,-17.8799992,539.999961853E-3,
,,,-17.8759995,539.999961853E-3,
,,,-17.8719997,500.000000000E-3,
,,,-17.8680000,500.000000000E-3,
,,,-17.8640003,500.000000000E-3,
,,,-17.8600006,459.999978542E-3,
,,,-17.8559990,500.000000000E-3,
,,,-17.8519993,500.000000000E-3,
,,,-17.8479996,459.999978542E-3,
,,,-17.8439999,419.999986887E-3,
,,,-17.8400002,500.000000000E-3,
,,,-17.8360004,419.999986887E-3,
,,,-17.8320007,459.999978542E-3,
,,,-17.8279991,459.999978542E-3,
,,,-17.8239994,419.999986887E-3,
,,,-17.8199997,459.999978542E-3,
,,,-17.8160000,459.999978542E-3,
,,,-17.8120003,379.99999523E-3,
,,,-17.8080006,459.999978542E-3,
,,,-17.8039989,500.000000000E-3,
,,,-17.7999992,459.999978542E-3,
,,,-17.7959995,379.99999523E-3,
,,,-17.7919998,419.999986887E-3,
,,,-17.7880001,379.99999523E-3,
,,,-17.7840004,419.999986887E-3,
,,,-17.7800007,379.99999523E-3,
,,,-17.7759991,379.99999523E-3,
,,,-17.7719994,379.99999523E-3,
,,,-17.7679996,379.99999523E-3,
,,,-17.7639999,379.99999523E-3,
,,,-17.7600002,379.99999523E-3,
,,,-17.7560005,379.99999523E-3,
,,,-17.7520008,379.99999523E-3,
,,,-17.7479992,340.00000358E-3,
,,,-17.7439995,379.99999523E-3,
,,,-17.7399998,340.00000358E-3,
,,,-17.7360001,379.99999523E-3,
,,,-17.7320004,379.99999523E-3,
,,,-17.7280006,379.99999523E-3,
,,,-17.7239990,259.99999046E-3,
,,,-17.7199993,379.99999523E-3,
,,,-17.7159996,340.00000358E-3,
,,,-17.7119999,340.00000358E-3,
,,,-17.7080002,379.99999523E-3,
,,,-17.7040005,379.99999523E-3,
,,,-17.7000008,419.999986887E-3,
,,,-17.6959991,419.999986887E-3,
,,,-17.6919994,500.000000000E-3,
,,,-17.6879997,500.000000000E-3,
,,,-17.6840000,539.999961853E-3,
,,,-17.6800003,459.999978542E-3,
,,,-17.6760006,459.999978542E-3,
,,,-17.6719990,459.999978542E-3,
,,,-17.6679993,500.000000000E-3,
,,,-17.6639996,459.999978542E-3,
,,,-17.6599998,459.999978542E-3,
,,,-17.6560001,379.99999523E-3,
,,,-17.6520004,459.999978542E-3,
,,,-17.6480007,379.99999523E-3,
,,,-17.6439991,419.999986887E-3,
,,,-17.6399994,459.999978542E-3,
,,,-17.6359997,419.999986887E-3,
,,,-17.6320000,340.00000358E-3,
,,,-17.6280003,259.99999046E-3,
,,,-17.6240005,379.99999523E-3,
,,,-17.6200008,379.99999523E-3,
,,,-17.6159992,419.999986887E-3,
,,,-17.6119995,419.999986887E-3,
,,,-17.6079998,299.99998212E-3,
,,,-17.6040001,340.00000358E-3,
,,,-17.6000004,340.00000358E-3,
,,,-17.5960007,259.99999046E-3,
,,,-17.5919991,299.99998212E-3,
,,,-17.5879993,299.99998212E-3,
,,,-17.5839996,299.99998212E-3,
,,,-17.5799999,299.99998212E-3,
,,,-17.5760002,299.99998212E-3,
,,,-17.5720005,299.99998212E-3,
,,,-17.5680008,299.99998212E-3,
,,,-17.5639992,259.99999046E-3,
