Capstone/data/arduino/ss1_L1.csv

Record Length,10000,Points,-20.0000000,140.0000006E-3,
Sample Interval,4.00000019E-3,s,-19.9960003,219.99999881E-3,
Trigger Point,5.00000000E3,Samples,-19.9920006,140.0000006E-3,
,,,-19.9880009,219.99999881E-3,
,,,-19.9839993,140.0000006E-3,
,,,-19.9799995,179.99999225E-3,
Source,CH1,,-19.9759998,179.99999225E-3,
Vertical Units,V,,-19.9720001,99.999994040E-3,
Vertical Scale,1.000000,,-19.9680004,59.999998659E-3,
Vertical Offset,0,,-19.9640007,140.0000006E-3,
Horizontal Units,s,,-19.9599991,99.999994040E-3,
Horizontal Scale,4.00000019,,-19.9559994,179.99999225E-3,
Pt Fmt,Y,,-19.9519997,140.0000006E-3,
Yzero,20.0000000E-3,,-19.9480000,219.99999881E-3,
Probe Atten,1.000000,,-19.9440002,99.999994040E-3,
,,,-19.9400005,179.99999225E-3,
Note,TDS 3034B - 10:13:33 AM   4/22/2016,,-19.9360008,99.999994040E-3,
,,,-19.9319992,179.99999225E-3,
,,,-19.9279995,140.0000006E-3,
,,,-19.9239998,179.99999225E-3,
,,,-19.9200001,179.99999225E-3,
,,,-19.9160004,179.99999225E-3,
,,,-19.9120007,140.0000006E-3,
,,,-19.9080009,140.0000006E-3,
,,,-19.9039993,179.99999225E-3,
,,,-19.8999996,179.99999225E-3,
,,,-19.8959999,179.99999225E-3,
,,,-19.8920002,140.0000006E-3,
,,,-19.8880005,99.999994040E-3,
,,,-19.8840008,99.999994040E-3,
,,,-19.8799992,99.999994040E-3,
,,,-19.8759995,59.999998659E-3,
,,,-19.8719997,99.999994040E-3,
,,,-19.8680000,99.999994040E-3,
,,,-19.8640003,99.999994040E-3,
,,,-19.8600006,59.999998659E-3,
,,,-19.8560009,99.999994040E-3,
,,,-19.8519993,99.999994040E-3,
,,,-19.8479996,140.0000006E-3,
,,,-19.8439999,179.99999225E-3,
,,,-19.8400002,140.0000006E-3,
,,,-19.8360004,59.999998659E-3,
,,,-19.8320007,140.0000006E-3,
,,,-19.8279991,140.0000006E-3,
,,,-19.8239994,99.999994040E-3,
,,,-19.8199997,99.999994040E-3,
,,,-19.8160000,99.999994040E-3,
,,,-19.8120003,140.0000006E-3,
,,,-19.8080006,99.999994040E-3,
,,,-19.8040009,99.999994040E-3,
,,,-19.7999992,99.999994040E-3,
,,,-19.7959995,59.999998659E-3,
,,,-19.7919998,99.999994040E-3,
,,,-19.7880001,99.999994040E-3,
,,,-19.7840004,99.999994040E-3,
,,,-19.7800007,99.999994040E-3,
,,,-19.7759991,59.999998659E-3,
,,,-19.7719994,140.0000006E-3,
,,,-19.7679996,59.999998659E-3,
,,,-19.7639999,59.999998659E-3,
,,,-19.7600002,59.999998659E-3,
,,,-19.7560005,59.999998659E-3,
,,,-19.7520008,59.999998659E-3,
,,,-19.7479992,19.9999996E-3,
,,,-19.7439995,59.999998659E-3,
,,,-19.7399998,59.999998659E-3,
,,,-19.7360001,99.999994040E-3,
,,,-19.7320004,19.9999996E-3,
,,,-19.7280006,59.999998659E-3,
,,,-19.7240009,59.999998659E-3,
,,,-19.7199993,59.999998659E-3,
,,,-19.7159996,-19.9999996E-3,
,,,-19.7119999,59.999998659E-3,
,,,-19.7080002,59.999998659E-3,
,,,-19.7040005,59.999998659E-3,
,,,-19.7000008,59.999998659E-3,
,,,-19.6959991,19.9999996E-3,
,,,-19.6919994,19.9999996E-3,
,,,-19.6879997,59.999998659E-3,
,,,-19.6840000,99.999994040E-3,
,,,-19.6800003,-19.9999996E-3,
,,,-19.6760006,59.999998659E-3,
,,,-19.6720009,19.9999996E-3,
,,,-19.6679993,19.9999996E-3,
,,,-19.6639996,19.9999996E-3,
,,,-19.6599998,59.999998659E-3,
,,,-19.6560001,-19.9999996E-3,
,,,-19.6520004,59.999998659E-3,
,,,-19.6480007,59.999998659E-3,
,,,-19.6439991,-19.9999996E-3,
,,,-19.6399994,19.9999996E-3,
,,,-19.6359997,19.9999996E-3,
,,,-19.6320000,19.9999996E-3,
,,,-19.6280003,19.9999996E-3,
,,,-19.6240005,59.999998659E-3,
,,,-19.6200008,19.9999996E-3,
,,,-19.6159992,19.9999996E-3,
,,,-19.6119995,59.999998659E-3,
,,,-19.6079998,19.9999996E-3,
,,,-19.6040001,-19.9999996E-3,
,,,-19.6000004,59.999998659E-3,
,,,-19.5960007,59.999998659E-3,
,,,-19.5919991,19.9999996E-3,
,,,-19.5879993,19.9999996E-3,
,,,-19.5839996,59.999998659E-3,
,,,-19.5799999,59.999998659E-3,
,,,-19.5760002,-19.9999996E-3,
,,,-19.5720005,-19.9999996E-3,
,,,-19.5680008,19.9999996E-3,
,,,-19.5639992,19.9999996E-3,
,,,-19.5599995,19.9999996E-3,
,,,-19.5559998,19.9999996E-3,
,,,-19.5520000,19.9999996E-3,
,,,-19.5480003,19.9999996E-3,
,,,-19.5440006,59.999998659E-3,
,,,-19.5400009,-19.9999996E-3,
,,,-19.5359993,59.999998659E-3,
,,,-19.5319996,19.9999996E-3,
,,,-19.5279999,99.999994040E-3,
,,,-19.5240002,59.999998659E-3,
,,,-19.5200005,59.999998659E-3,
,,,-19.5160007,59.999998659E-3,
,,,-19.5119991,59.999998659E-3,
,,,-19.5079994,99.999994040E-3,
,,,-19.5039997,59.999998659E-3,
,,,-19.5000000,59.999998659E-3,
,,,-19.4960003,59.999998659E-3,
,,,-19.4920006,59.999998659E-3,
,,,-19.4880009,59.999998659E-3,
,,,-19.4839993,59.999998659E-3,
,,,-19.4799995,99.999994040E-3,
,,,-19.4759998,99.999994040E-3,
,,,-19.4720001,99.999994040E-3,
,,,-19.4680004,59.999998659E-3,
,,,-19.4640007,99.999994040E-3,
,,,-19.4599991,59.999998659E-3,
,,,-19.4559994,99.999994040E-3,
,,,-19.4519997,99.999994040E-3,
,,,-19.4480000,59.999998659E-3,
,,,-19.4440002,140.0000006E-3,
,,,-19.4400005,179.99999225E-3,
,,,-19.4360008,219.99999881E-3,
,,,-19.4319992,219.99999881E-3,
,,,-19.4279995,259.99999046E-3,
,,,-19.4239998,179.99999225E-3,
,,,-19.4200001,219.99999881E-3,
,,,-19.4160004,219.99999881E-3,
,,,-19.4120007,140.0000006E-3,
,,,-19.4079990,179.99999225E-3,
,,,-19.4039993,259.99999046E-3,
,,,-19.3999996,179.99999225E-3,
,,,-19.3959999,179.99999225E-3,
,,,-19.3920002,259.99999046E-3,
,,,-19.3880005,259.99999046E-3,
,,,-19.3840008,299.99998212E-3,
,,,-19.3799992,219.99999881E-3,
,,,-19.3759995,259.99999046E-3,
,,,-19.3719997,219.99999881E-3,
,,,-19.3680000,259.99999046E-3,
,,,-19.3640003,259.99999046E-3,
,,,-19.3600006,299.99998212E-3,
,,,-19.3560009,259.99999046E-3,
,,,-19.3519993,259.99999046E-3,
,,,-19.3479996,299.99998212E-3,
,,,-19.3439999,259.99999046E-3,
,,,-19.3400002,259.99999046E-3,
,,,-19.3360004,259.99999046E-3,
,,,-19.3320007,340.00000358E-3,
,,,-19.3279991,340.00000358E-3,
,,,-19.3239994,379.99999523E-3,
,,,-19.3199997,419.999986887E-3,
,,,-19.3160000,340.00000358E-3,
,,,-19.3120003,419.999986887E-3,
,,,-19.3080006,379.99999523E-3,
,,,-19.3040009,419.999986887E-3,
,,,-19.2999992,379.99999523E-3,
,,,-19.2959995,379.99999523E-3,
,,,-19.2919998,500.000000000E-3,
,,,-19.2880001,500.000000000E-3,
,,,-19.2840004,459.999978542E-3,
,,,-19.2800007,579.999983311E-3,
,,,-19.2759991,539.999961853E-3,
,,,-19.2719994,539.999961853E-3,
,,,-19.2679996,500.000000000E-3,
,,,-19.2639999,500.000000000E-3,
,,,-19.2600002,500.000000000E-3,
,,,-19.2560005,500.000000000E-3,
,,,-19.2520008,579.999983311E-3,
,,,-19.2479992,500.000000000E-3,
,,,-19.2439995,659.999966621E-3,
,,,-19.2399998,620.000004768E-3,
,,,-19.2360001,579.999983311E-3,
,,,-19.2320004,620.000004768E-3,
,,,-19.2280006,659.999966621E-3,
,,,-19.2239990,620.000004768E-3,
,,,-19.2199993,579.999983311E-3,
,,,-19.2159996,659.999966621E-3,
,,,-19.2119999,659.999966621E-3,
,,,-19.2080002,579.999983311E-3,
,,,-19.2040005,620.000004768E-3,
,,,-19.2000008,659.999966621E-3,
,,,-19.1959991,620.000004768E-3,
,,,-19.1919994,620.000004768E-3,
,,,-19.1879997,620.000004768E-3,
,,,-19.1840000,579.999983311E-3,
,,,-19.1800003,539.999961853E-3,
,,,-19.1760006,539.999961853E-3,
,,,-19.1720009,539.999961853E-3,
,,,-19.1679993,579.999983311E-3,
,,,-19.1639996,620.000004768E-3,
,,,-19.1599998,500.000000000E-3,
,,,-19.1560001,579.999983311E-3,
,,,-19.1520004,539.999961853E-3,
,,,-19.1480007,539.999961853E-3,
,,,-19.1439991,579.999983311E-3,
,,,-19.1399994,579.999983311E-3,
,,,-19.1359997,500.000000000E-3,
,,,-19.1320000,539.999961853E-3,
,,,-19.1280003,579.999983311E-3,
,,,-19.1240005,579.999983311E-3,
,,,-19.1200008,579.999983311E-3,
,,,-19.1159992,659.999966621E-3,
,,,-19.1119995,620.000004768E-3,
,,,-19.1079998,620.000004768E-3,
,,,-19.1040001,579.999983311E-3,
,,,-19.1000004,620.000004768E-3,
,,,-19.0960007,579.999983311E-3,
,,,-19.0919991,659.999966621E-3,
,,,-19.0879993,620.000004768E-3,
,,,-19.0839996,699.999988079E-3,
,,,-19.0799999,740.000009537E-3,
,,,-19.0760002,699.999988079E-3,
,,,-19.0720005,699.999988079E-3,
,,,-19.0680008,699.999988079E-3,
,,,-19.0639992,659.999966621E-3,
,,,-19.0599995,699.999988079E-3,
,,,-19.0559998,740.000009537E-3,
,,,-19.0520000,659.999966621E-3,
,,,-19.0480003,659.999966621E-3,
,,,-19.0440006,659.999966621E-3,
,,,-19.0399990,659.999966621E-3,
,,,-19.0359993,699.999988079E-3,
,,,-19.0319996,699.999988079E-3,
,,,-19.0279999,699.999988079E-3,
,,,-19.0240002,699.999988079E-3,
,,,-19.0200005,620.000004768E-3,
,,,-19.0160007,620.000004768E-3,
,,,-19.0119991,579.999983311E-3,
,,,-19.0079994,579.999983311E-3,
,,,-19.0039997,620.000004768E-3,
,,,-19.0000000,579.999983311E-3,
,,,-18.9960003,539.999961853E-3,
,,,-18.9920006,539.999961853E-3,
,,,-18.9880009,539.999961853E-3,
,,,-18.9839993,500.000000000E-3,
,,,-18.9799995,539.999961853E-3,
,,,-18.9759998,500.000000000E-3,
,,,-18.9720001,500.000000000E-3,
,,,-18.9680004,419.999986887E-3,
,,,-18.9640007,500.000000000E-3,
,,,-18.9599991,459.999978542E-3,
,,,-18.9559994,419.999986887E-3,
,,,-18.9519997,459.999978542E-3,
,,,-18.9480000,419.999986887E-3,
,,,-18.9440002,459.999978542E-3,
,,,-18.9400005,500.000000000E-3,
,,,-18.9360008,419.999986887E-3,
,,,-18.9319992,379.99999523E-3,
,,,-18.9279995,379.99999523E-3,
,,,-18.9239998,379.99999523E-3,
,,,-18.9200001,419.999986887E-3,
,,,-18.9160004,379.99999523E-3,
,,,-18.9120007,379.99999523E-3,
,,,-18.9079990,419.999986887E-3,
,,,-18.9039993,340.00000358E-3,
,,,-18.8999996,419.999986887E-3,
,,,-18.8959999,459.999978542E-3,
,,,-18.8920002,459.999978542E-3,
,,,-18.8880005,379.99999523E-3,
,,,-18.8840008,379.99999523E-3,
,,,-18.8799992,340.00000358E-3,
,,,-18.8759995,459.999978542E-3,
,,,-18.8719997,340.00000358E-3,
,,,-18.8680000,379.99999523E-3,
,,,-18.8640003,340.00000358E-3,
,,,-18.8600006,299.99998212E-3,
,,,-18.8559990,299.99998212E-3,
,,,-18.8519993,299.99998212E-3,
,,,-18.8479996,299.99998212E-3,
,,,-18.8439999,219.99999881E-3,
,,,-18.8400002,219.99999881E-3,
,,,-18.8360004,259.99999046E-3,
,,,-18.8320007,259.99999046E-3,
,,,-18.8279991,219.99999881E-3,
,,,-18.8239994,219.99999881E-3,
,,,-18.8199997,219.99999881E-3,
,,,-18.8160000,219.99999881E-3,
,,,-18.8120003,219.99999881E-3,
,,,-18.8080006,219.99999881E-3,
,,,-18.8040009,219.99999881E-3,
,,,-18.7999992,179.99999225E-3,
,,,-18.7959995,179.99999225E-3,
,,,-18.7919998,179.99999225E-3,
,,,-18.7880001,179.99999225E-3,
,,,-18.7840004,219.99999881E-3,
,,,-18.7800007,219.99999881E-3,
,,,-18.7759991,140.0000006E-3,
,,,-18.7719994,179.99999225E-3,
,,,-18.7679996,179.99999225E-3,
,,,-18.7639999,140.0000006E-3,
,,,-18.7600002,179.99999225E-3,
,,,-18.7560005,140.0000006E-3,
,,,-18.7520008,179.99999225E-3,
,,,-18.7479992,219.99999881E-3,
,,,-18.7439995,219.99999881E-3,
,,,-18.7399998,99.999994040E-3,
,,,-18.7360001,140.0000006E-3,
,,,-18.7320004,179.99999225E-3,
,,,-18.7280006,179.99999225E-3,
,,,-18.7239990,179.99999225E-3,
,,,-18.7199993,219.99999881E-3,
,,,-18.7159996,179.99999225E-3,
,,,-18.7119999,140.0000006E-3,
,,,-18.7080002,179.99999225E-3,
,,,-18.7040005,179.99999225E-3,
,,,-18.7000008,140.0000006E-3,
,,,-18.6959991,140.0000006E-3,
,,,-18.6919994,140.0000006E-3,
,,,-18.6879997,140.0000006E-3,
,,,-18.6840000,179.99999225E-3,
,,,-18.6800003,179.99999225E-3,
,,,-18.6760006,140.0000006E-3,
,,,-18.6720009,179.99999225E-3,
,,,-18.6679993,140.0000006E-3,
,,,-18.6639996,179.99999225E-3,
,,,-18.6599998,259.99999046E-3,
,,,-18.6560001,219.99999881E-3,
,,,-18.6520004,219.99999881E-3,
,,,-18.6480007,179.99999225E-3,
,,,-18.6439991,259.99999046E-3,
,,,-18.6399994,219.99999881E-3,
,,,-18.6359997,259.99999046E-3,
,,,-18.6320000,259.99999046E-3,
,,,-18.6280003,259.99999046E-3,
,,,-18.6240005,259.99999046E-3,
,,,-18.6200008,259.99999046E-3,
,,,-18.6159992,219.99999881E-3,
,,,-18.6119995,179.99999225E-3,
,,,-18.6079998,219.99999881E-3,
,,,-18.6040001,179.99999225E-3,
,,,-18.6000004,219.99999881E-3,
,,,-18.5960007,219.99999881E-3,
,,,-18.5919991,259.99999046E-3,
,,,-18.5879993,179.99999225E-3,
,,,-18.5839996,219.99999881E-3,
,,,-18.5799999,179.99999225E-3,
,,,-18.5760002,140.0000006E-3,
,,,-18.5720005,179.99999225E-3,
,,,-18.5680008,179.99999225E-3,
,,,-18.5639992,179.99999225E-3,
,,,-18.5599995,179.99999225E-3,
,,,-18.5559998,179.99999225E-3,
,,,-18.5520000,99.999994040E-3,
,,,-18.5480003,140.0000006E-3,
,,,-18.5440006,99.999994040E-3,
,,,-18.5399990,99.999994040E-3,
,,,-18.5359993,140.0000006E-3,
,,,-18.5319996,140.0000006E-3,
,,,-18.5279999,99.999994040E-3,
,,,-18.5240002,99.999994040E-3,
,,,-18.5200005,140.0000006E-3,
,,,-18.5160007,99.999994040E-3,
,,,-18.5119991,140.0000006E-3,
,,,-18.5079994,59.999998659E-3,
,,,-18.5039997,59.999998659E-3,
,,,-18.5000000,99.999994040E-3,
,,,-18.4960003,140.0000006E-3,
,,,-18.4920006,59.999998659E-3,
,,,-18.4880009,140.0000006E-3,
,,,-18.4839993,59.999998659E-3,
,,,-18.4799995,140.0000006E-3,
,,,-18.4759998,140.0000006E-3,
,,,-18.4720001,99.999994040E-3,
,,,-18.4680004,59.999998659E-3,
,,,-18.4640007,59.999998659E-3,
,,,-18.4599991,59.999998659E-3,
,,,-18.4559994,99.999994040E-3,
,,,-18.4519997,59.999998659E-3,
,,,-18.4480000,19.9999996E-3,
,,,-18.4440002,19.9999996E-3,
,,,-18.4400005,99.999994040E-3,
,,,-18.4360008,19.9999996E-3,
,,,-18.4319992,19.9999996E-3,
,,,-18.4279995,-19.9999996E-3,
,,,-18.4239998,19.9999996E-3,
,,,-18.4200001,19.9999996E-3,
,,,-18.4160004,19.9999996E-3,
,,,-18.4120007,-19.9999996E-3,
,,,-18.4079990,-19.9999996E-3,
,,,-18.4039993,59.999998659E-3,
,,,-18.3999996,59.999998659E-3,
,,,-18.3959999,-19.9999996E-3,
,,,-18.3920002,19.9999996E-3,
,,,-18.3880005,19.9999996E-3,
,,,-18.3840008,-19.9999996E-3,
,,,-18.3799992,19.9999996E-3,
,,,-18.3759995,19.9999996E-3,
,,,-18.3719997,59.999998659E-3,
,,,-18.3680000,59.999998659E-3,
,,,-18.3640003,59.999998659E-3,
,,,-18.3600006,19.9999996E-3,
,,,-18.3559990,59.999998659E-3,
,,,-18.3519993,-19.9999996E-3,
,,,-18.3479996,59.999998659E-3,
,,,-18.3439999,59.999998659E-3,
,,,-18.3400002,19.9999996E-3,
,,,-18.3360004,19.9999996E-3,
,,,-18.3320007,59.999998659E-3,
,,,-18.3279991,19.9999996E-3,
,,,-18.3239994,59.999998659E-3,
,,,-18.3199997,19.9999996E-3,
,,,-18.3160000,19.9999996E-3,
,,,-18.3120003,19.9999996E-3,
,,,-18.3080006,59.999998659E-3,
,,,-18.3040009,59.999998659E-3,
,,,-18.2999992,-19.9999996E-3,
,,,-18.2959995,-19.9999996E-3,
,,,-18.2919998,-19.9999996E-3,
,,,-18.2880001,-19.9999996E-3,
,,,-18.2840004,59.999998659E-3,
,,,-18.2800007,19.9999996E-3,
,,,-18.2759991,19.9999996E-3,
,,,-18.2719994,-19.9999996E-3,
,,,-18.2679996,-19.9999996E-3,
,,,-18.2639999,19.9999996E-3,
,,,-18.2600002,19.9999996E-3,
,,,-18.2560005,19.9999996E-3,
,,,-18.2520008,19.9999996E-3,
,,,-18.2479992,59.999998659E-3,
,,,-18.2439995,59.999998659E-3,
,,,-18.2399998,99.999994040E-3,
,,,-18.2360001,59.999998659E-3,
,,,-18.2320004,59.999998659E-3,
,,,-18.2280006,-19.9999996E-3,
,,,-18.2239990,59.999998659E-3,
,,,-18.2199993,19.9999996E-3,
,,,-18.2159996,59.999998659E-3,
,,,-18.2119999,19.9999996E-3,
,,,-18.2080002,59.999998659E-3,
,,,-18.2040005,59.999998659E-3,
,,,-18.2000008,59.999998659E-3,
,,,-18.1959991,59.999998659E-3,
,,,-18.1919994,59.999998659E-3,
,,,-18.1879997,59.999998659E-3,
,,,-18.1840000,59.999998659E-3,
,,,-18.1800003,59.999998659E-3,
,,,-18.1760006,99.999994040E-3,
,,,-18.1719990,59.999998659E-3,
,,,-18.1679993,59.999998659E-3,
,,,-18.1639996,19.9999996E-3,
,,,-18.1599998,179.99999225E-3,
,,,-18.1560001,99.999994040E-3,
,,,-18.1520004,59.999998659E-3,
,,,-18.1480007,140.0000006E-3,
,,,-18.1439991,140.0000006E-3,
,,,-18.1399994,99.999994040E-3,
,,,-18.1359997,140.0000006E-3,
,,,-18.1320000,99.999994040E-3,
,,,-18.1280003,179.99999225E-3,
,,,-18.1240005,99.999994040E-3,
,,,-18.1200008,140.0000006E-3,
,,,-18.1159992,140.0000006E-3,
,,,-18.1119995,259.99999046E-3,
,,,-18.1079998,219.99999881E-3,
,,,-18.1040001,219.99999881E-3,
,,,-18.1000004,219.99999881E-3,
,,,-18.0960007,179.99999225E-3,
,,,-18.0919991,219.99999881E-3,
,,,-18.0879993,259.99999046E-3,
,,,-18.0839996,299.99998212E-3,
,,,-18.0799999,299.99998212E-3,
,,,-18.0760002,299.99998212E-3,
,,,-18.0720005,419.999986887E-3,
,,,-18.0680008,299.99998212E-3,
,,,-18.0639992,379.99999523E-3,
,,,-18.0599995,379.99999523E-3,
,,,-18.0559998,379.99999523E-3,
,,,-18.0520000,379.99999523E-3,
,,,-18.0480003,299.99998212E-3,
,,,-18.0440006,379.99999523E-3,
,,,-18.0399990,340.00000358E-3,
,,,-18.0359993,419.999986887E-3,
,,,-18.0319996,419.999986887E-3,
,,,-18.0279999,379.99999523E-3,
,,,-18.0240002,379.99999523E-3,
,,,-18.0200005,340.00000358E-3,
,,,-18.0160007,419.999986887E-3,
,,,-18.0119991,379.99999523E-3,
,,,-18.0079994,419.999986887E-3,
,,,-18.0039997,419.999986887E-3,
,,,-18.0000000,379.99999523E-3,
,,,-17.9960003,419.999986887E-3,
,,,-17.9920006,379.99999523E-3,
,,,-17.9879990,379.99999523E-3,
,,,-17.9839993,379.99999523E-3,
,,,-17.9799995,419.999986887E-3,
,,,-17.9759998,500.000000000E-3,
,,,-17.9720001,419.999986887E-3,
,,,-17.9680004,500.000000000E-3,
,,,-17.9640007,500.000000000E-3,
,,,-17.9599991,459.999978542E-3,
,,,-17.9559994,459.999978542E-3,
,,,-17.9519997,539.999961853E-3,
,,,-17.9480000,500.000000000E-3,
,,,-17.9440002,500.000000000E-3,
,,,-17.9400005,500.000000000E-3,
,,,-17.9360008,539.999961853E-3,
,,,-17.9319992,500.000000000E-3,
,,,-17.9279995,500.000000000E-3,
,,,-17.9239998,500.000000000E-3,
,,,-17.9200001,579.999983311E-3,
,,,-17.9160004,579.999983311E-3,
,,,-17.9120007,620.000004768E-3,
,,,-17.9079990,579.999983311E-3,
,,,-17.9039993,579.999983311E-3,
,,,-17.8999996,579.999983311E-3,
,,,-17.8959999,620.000004768E-3,
,,,-17.8920002,620.000004768E-3,
,,,-17.8880005,579.999983311E-3,
,,,-17.8840008,740.000009537E-3,
,,,-17.8799992,659.999966621E-3,
,,,-17.8759995,620.000004768E-3,
,,,-17.8719997,659.999966621E-3,
,,,-17.8680000,620.000004768E-3,
,,,-17.8640003,579.999983311E-3,
,,,-17.8600006,620.000004768E-3,
,,,-17.8559990,579.999983311E-3,
,,,-17.8519993,579.999983311E-3,
,,,-17.8479996,579.999983311E-3,
,,,-17.8439999,579.999983311E-3,
,,,-17.8400002,659.999966621E-3,
,,,-17.8360004,579.999983311E-3,
,,,-17.8320007,579.999983311E-3,
,,,-17.8279991,620.000004768E-3,
,,,-17.8239994,659.999966621E-3,
,,,-17.8199997,620.000004768E-3,
,,,-17.8160000,659.999966621E-3,
,,,-17.8120003,620.000004768E-3,
,,,-17.8080006,620.000004768E-3,
,,,-17.8039989,659.999966621E-3,
,,,-17.7999992,699.999988079E-3,
,,,-17.7959995,699.999988079E-3,
,,,-17.7919998,779.999971390E-3,
,,,-17.7880001,740.000009537E-3,
,,,-17.7840004,740.000009537E-3,
,,,-17.7800007,779.999971390E-3,
,,,-17.7759991,779.999971390E-3,
,,,-17.7719994,740.000009537E-3,
,,,-17.7679996,740.000009537E-3,
,,,-17.7639999,779.999971390E-3,
,,,-17.7600002,740.000009537E-3,
,,,-17.7560005,779.999971390E-3,
,,,-17.7520008,779.999971390E-3,
,,,-17.7479992,859.999954700E-3,
,,,-17.7439995,819.999992847E-3,
,,,-17.7399998,779.999971390E-3,
,,,-17.7360001,779.999971390E-3,
,,,-17.7320004,740.000009537E-3,
,,,-17.7280006,740.000009537E-3,
,,,-17.7239990,740.000009537E-3,
,,,-17.7199993,699.999988079E-3,
,,,-17.7159996,740.000009537E-3,
,,,-17.7119999,819.999992847E-3,
,,,-17.7080002,779.999971390E-3,
,,,-17.7040005,740.000009537E-3,
,,,-17.7000008,779.999971390E-3,
,,,-17.6959991,779.999971390E-3,
,,,-17.6919994,779.999971390E-3,
,,,-17.6879997,819.999992847E-3,
,,,-17.6840000,740.000009537E-3,
,,,-17.6800003,779.999971390E-3,
,,,-17.6760006,740.000009537E-3,
,,,-17.6719990,699.999988079E-3,
,,,-17.6679993,659.999966621E-3,
,,,-17.6639996,659.999966621E-3,
,,,-17.6599998,620.000004768E-3,
,,,-17.6560001,579.999983311E-3,
,,,-17.6520004,579.999983311E-3,
,,,-17.6480007,579.999983311E-3,
,,,-17.6439991,659.999966621E-3,
,,,-17.6399994,659.999966621E-3,
,,,-17.6359997,740.000009537E-3,
,,,-17.6320000,699.999988079E-3,
,,,-17.6280003,659.999966621E-3,
,,,-17.6240005,659.999966621E-3,
,,,-17.6200008,699.999988079E-3,
,,,-17.6159992,579.999983311E-3,
,,,-17.6119995,579.999983311E-3,
,,,-17.6079998,620.000004768E-3,
,,,-17.6040001,579.999983311E-3,
,,,-17.6000004,500.000000000E-3,
,,,-17.5960007,500.000000000E-3,
,,,-17.5919991,459.999978542E-3,
,,,-17.5879993,500.000000000E-3,
,,,-17.5839996,500.000000000E-3,
,,,-17.5799999,500.000000000E-3,
,,,-17.5760002,500.000000000E-3,
,,,-17.5720005,500.000000000E-3,
,,,-17.5680008,500.000000000E-3,
,,,-17.5639992,459.999978542E-3,
,,,-17.5599995,419.999986887E-3,
,,,-17.5559998,500.000000000E-3,
,,,-17.5520000,379.99999523E-3,
,,,-17.5480003,379.99999523E-3,
